<?xml version="1.0" encoding="UTF-8"?>
<svg width="144px" height="533px" viewBox="0 0 144 533" version="1.1" xmlns="http://www.w3.org/2000/svg" xmlns:xlink="http://www.w3.org/1999/xlink">
    <!-- Generator: Sketch 51.1 (57501) - http://www.bohemiancoding.com/sketch -->
    <title>police</title>
    <desc>Created with Sketch.</desc>
    <defs>
        <polygon id="path-1" points="0.758482635 0.9507 20.4813181 0.9507 20.4813181 16 0.758482635 16"></polygon>
        <polygon id="path-3" points="0 0.980101043 59.8621 0.980101043 59.8621 124.8894 0 124.8894"></polygon>
        <polygon id="path-5" points="0.790798114 0.378 110.533812 0.378 110.533812 60.0603 0.790798114 60.0603"></polygon>
    </defs>
    <g id="Page-1" stroke="none" stroke-width="1" fill="none" fill-rule="evenodd">
        <g id="police" transform="translate(0.000000, -1.000000)">
            <path d="M105.3666,493.477 C105.3666,493.477 109.6706,508.274 113.7166,515.206 C116.8056,520.53 117.3046,524.059 114.7846,525.633 C108.3666,529.618 102.8486,530.819 100.5086,530.342 C96.5846,529.598 97.1886,523.661 97.0786,520.707 C96.8936,515.575 96.1066,512.674 96.0706,510.373 C96.0156,501.645 94.5956,495.454 94.5186,494.42 C93.9876,489.145 104.4326,487.241 105.3666,493.477" id="Fill-1" fill="#F6C9A9" fill-rule="nonzero"></path>
            <g id="Group-5" transform="translate(96.000000, 517.622000)">
                <g id="Fill-3-Clipped">
                    <mask id="mask-2" fill="white">
                        <use xlink:href="#path-1"></use>
                    </mask>
                    <g id="path-1"></g>
                    <path d="M0.9731,3.9917 C0.9731,3.9917 -0.3009,10.1737 3.3591,14.1757 C7.0201,18.2187 15.5141,14.5937 17.8931,12.4137 C21.1241,9.4507 21.0131,4.1307 19.2911,0.9507 C19.2911,0.9507 19.9051,5.1457 14.3921,8.6187 C8.8791,12.0467 0.9731,3.9917 0.9731,3.9917" id="Fill-3" fill="#151626" fill-rule="nonzero" mask="url(#mask-2)"></path>
                </g>
            </g>
            <path d="M97.0268,523.8344 C97.0268,523.8344 103.9158,530.7174 109.6048,528.7994 C115.3378,526.8364 115.9388,518.6354 115.2918,518.5724 C115.2918,518.5724 112.2348,510.8934 110.6878,508.3444 C110.6878,508.3444 110.3848,523.3524 106.0628,524.1154 C102.3128,524.7774 98.2878,505.9534 95.6878,507.8134 C95.6878,507.8134 96.6868,520.4344 97.0268,523.8344" id="Fill-6" fill="#151626" fill-rule="nonzero"></path>
            <path d="M93.7924,488.0375 L94.3414,493.1075 C94.3414,493.1075 99.9574,493.5355 106.0114,491.1685 L106.2244,486.7425 C106.2244,486.7425 95.6104,488.4515 93.7924,488.0375" id="Fill-8" fill="#151626" fill-rule="nonzero"></path>
            <path d="M37.1791,492.7231 C31.8201,497.9141 26.5971,518.6141 19.4551,519.0571 C10.3581,519.6471 6.8811,521.3421 11.2751,524.0821 C14.4451,526.0731 23.4431,528.3211 28.9421,526.9161 C34.4521,525.4731 37.2411,509.4461 48.4381,509.2411 C53.4741,509.1271 54.0781,512.3191 53.7651,508.9051 C53.2701,503.7641 48.5341,493.6491 48.5341,493.6491 C48.5341,493.6491 43.8831,486.1941 37.1791,492.7231" id="Fill-10" fill="#F6C9A9" fill-rule="nonzero"></path>
            <path d="M52.9418,502.7504 C51.7398,497.4614 48.6078,491.7504 48.6078,491.7504 C45.1248,492.7114 35.9638,489.9044 35.9638,489.9044 L35.3328,494.3934 C42.6148,496.8544 47.2428,496.6114 47.2428,496.6114 C49.2938,498.8574 25.2828,522.1334 21.1078,518.9164 L14.2748,519.7504 C14.2748,519.7504 10.8128,519.9904 8.6878,521.3654 C8.6878,521.3654 8.8648,525.7304 8.9418,526.5824 C9.0088,527.4364 13.7298,529.5514 21.4408,530.4164 C30.0468,531.4244 31.5448,526.4024 33.8788,523.6664 C42.0018,514.2774 48.4378,510.4904 48.4378,510.4904 L49.5628,527.7404 L51.7748,527.9164 L53.6078,509.7504 C53.6078,509.7504 53.8458,506.7934 52.9418,502.7504" id="Fill-12" fill="#151626" fill-rule="nonzero"></path>
            <path d="M105.1077,293.916 C104.1917,285.207 98.9007,275.84 98.5477,275.503 C86.2367,262.74 34.5097,263.35 29.4407,272.915 C28.4677,274.753 22.9817,287.614 22.9407,301.416 C22.9187,310.182 29.3377,388.464 29.4417,396.341 C29.3527,399.814 30.4397,402.816 32.1737,405.437 C31.5207,408.204 31.2227,411.371 31.4407,414.916 C31.8007,420.791 32.8817,493.09 33.6047,494.573 C34.3187,496.012 50.9877,498.194 51.2707,494.575 C54.6047,451.907 55.3987,433.707 53.9407,408.916 C53.7987,406.492 53.4637,404.365 52.9797,402.514 C54.6147,392.785 55.2687,381.675 57.9377,355.575 C59.4977,340.37 62.1747,322.939 64.1847,310.437 C67.1207,327.684 70.6867,347.66 73.6047,360.575 C79.8497,388.213 80.8687,400.017 84.8587,408.277 C84.8507,408.892 84.8387,409.498 84.8447,410.137 C84.9097,416.711 92.1247,490.034 92.9377,491.573 C93.7657,493.155 106.5947,494.18 106.9377,490.241 C110.8397,448.597 110.1347,426.915 106.2387,401.267 C105.5417,392.039 106.0057,302.322 105.1077,293.916 Z" id="Fill-14" fill="#3D6A0B" fill-rule="nonzero"></path>
            <path d="M32.0326,268.9663 C32.0326,268.9663 29.0376,273.5673 28.2846,275.5323 C28.2846,275.5323 42.8656,280.8193 63.9676,281.1963 C82.7986,281.5343 92.4306,280.1783 99.6486,277.4053 L96.1896,272.0723 L32.0326,268.9663 Z" id="Fill-16" fill="#3D240E" fill-rule="nonzero"></path>
            <rect id="Rectangle" fill="#CCB20F" x="59" y="275" width="12" height="7" rx="1"></rect>
            <rect id="Rectangle-2" fill="#8B572A" x="63" y="278" width="4" height="2"></rect>
            <path d="M112.1723,293.3725 C111.7163,295.3965 112.8933,300.5145 112.1863,303.4925 C111.1173,308.0435 111.4753,310.9185 112.6863,310.1835 C113.4703,309.6845 114.0943,307.0235 114.9143,302.8105 C115.7293,298.5525 115.8123,294.0485 115.1693,292.5215 C114.5473,291.0375 112.6573,291.1235 112.1723,293.3725" id="Fill-18" fill="#E1B09E" fill-rule="nonzero"></path>
            <path d="M107.0053,289.1118 C107.0053,289.1118 109.7383,297.4608 109.6373,298.9558 C109.5303,300.4118 109.1203,305.4408 109.3303,306.6328 C109.5403,307.8258 110.4093,308.4908 111.2223,307.0258 C112.0293,305.5638 113.6643,297.7468 112.3993,293.3848 C111.1353,289.0228 110.4543,287.7188 108.6903,287.6578 C106.9083,287.6408 106.8373,288.5698 107.0053,289.1118" id="Fill-20" fill="#E1B09E" fill-rule="nonzero"></path>
            <path d="M105.0883,285.1469 C105.0883,285.1469 107.8413,293.4899 107.7363,294.9869 C107.6353,296.4889 107.2173,301.4739 107.4083,302.6669 C107.5993,303.8629 108.4863,304.5259 109.3203,303.0579 C110.1313,301.5959 111.4353,295.7869 110.1713,291.4239 C108.9013,287.0629 108.5323,283.7529 106.7713,283.7369 C104.9853,283.6769 104.9183,284.6019 105.0883,285.1469" id="Fill-22" fill="#E1B09E" fill-rule="nonzero"></path>
            <path d="M103.2387,274.7583 C102.9097,275.9373 102.2417,276.9003 103.0897,280.2323 C103.9177,283.5643 109.7017,286.9943 111.7677,292.4703 C113.6057,297.2753 117.3697,295.9243 116.2857,290.5323 C115.1817,285.1473 112.2167,277.0943 111.0727,274.5473 C109.2807,270.6073 104.0177,271.9013 103.2387,274.7583" id="Fill-24" fill="#F6C9A9" fill-rule="nonzero"></path>
            <path d="M111.975,292.1352 C112.713,294.7362 114.107,300.4772 114.264,303.5522 C114.394,306.6312 114.608,309.4832 115.486,309.2302 C116.367,308.9762 116.883,306.8102 116.945,302.4862 C117.005,298.1562 116.932,293.2352 116.022,290.7442 C115.474,289.1652 111.353,289.9512 111.975,292.1352" id="Fill-26" fill="#F6C9A9" fill-rule="nonzero"></path>
            <path d="M102.8842,275.896 C102.2462,277.598 102.3342,284.305 105.0192,292.089 C106.1782,295.419 105.8562,299.306 106.8212,298.956 C108.9242,298.226 108.6132,295.391 108.2442,293.084 C107.8582,290.784 107.8452,289.695 108.6052,285.665 C109.3672,281.632 104.9052,270.514 102.8842,275.896" id="Fill-28" fill="#F6C9A9" fill-rule="nonzero"></path>
            <path d="M6.9691,324.5942 C7.4251,326.6172 6.2481,331.7322 6.9551,334.7082 C8.0241,339.2562 7.6661,342.1292 6.4551,341.3952 C5.6711,340.8972 5.0471,338.2382 4.2271,334.0272 C3.4121,329.7712 3.3291,325.2692 3.9721,323.7442 C4.5941,322.2602 6.4841,322.3472 6.9691,324.5942" id="Fill-30" fill="#E1B09E" fill-rule="nonzero"></path>
            <path d="M12.1361,320.3364 C12.1361,320.3364 9.4031,328.6804 9.5041,330.1744 C9.6111,331.6294 10.0211,336.6544 9.8111,337.8474 C9.6011,339.0384 8.7321,339.7034 7.9191,338.2394 C7.1121,336.7784 5.4771,328.9654 6.7421,324.6074 C8.0061,320.2474 8.6871,318.9444 10.4511,318.8834 C12.2331,318.8664 12.3041,319.7944 12.1361,320.3364" id="Fill-32" fill="#E1B09E" fill-rule="nonzero"></path>
            <path d="M14.0531,316.3735 C14.0531,316.3735 11.3001,324.7115 11.4051,326.2085 C11.5061,327.7085 11.9241,332.6905 11.7331,333.8825 C11.5421,335.0785 10.6551,335.7415 9.8211,334.2735 C9.0101,332.8125 7.7061,327.0065 8.9701,322.6465 C10.2401,318.2885 10.6091,314.9805 12.3701,314.9645 C14.1561,314.9045 14.2231,315.8285 14.0531,316.3735" id="Fill-34" fill="#E1B09E" fill-rule="nonzero"></path>
            <path d="M15.9027,305.9907 C16.2317,307.1697 16.8997,308.1317 16.0517,311.4617 C15.2237,314.7917 9.4397,318.2197 7.3737,323.6927 C5.5357,328.4947 1.7717,327.1437 2.8557,321.7567 C3.9597,316.3737 6.9247,308.3257 8.0687,305.7797 C9.8607,301.8427 15.1237,303.1357 15.9027,305.9907" id="Fill-36" fill="#F6C9A9" fill-rule="nonzero"></path>
            <path d="M7.1664,323.3569 C6.4284,325.9569 5.0344,331.6949 4.8774,334.7679 C4.7474,337.8439 4.5334,340.6949 3.6554,340.4419 C2.7744,340.1889 2.2584,338.0239 2.1964,333.7019 C2.1364,329.3759 2.2094,324.4569 3.1194,321.9679 C3.6674,320.3889 7.7884,321.1759 7.1664,323.3569" id="Fill-38" fill="#F6C9A9" fill-rule="nonzero"></path>
            <path d="M16.2572,307.1284 C16.8952,308.8294 16.8072,315.5324 14.1222,323.3124 C12.9632,326.6404 13.2852,330.5244 12.3202,330.1744 C10.2172,329.4454 10.5282,326.6104 10.8972,324.3064 C11.2832,322.0074 11.2962,320.9184 10.5362,316.8914 C9.7742,312.8604 14.2362,301.7494 16.2572,307.1284" id="Fill-40" fill="#F6C9A9" fill-rule="nonzero"></path>
            <path d="M55.2367,67.4155 C55.3367,67.0995 41.2857,79.1045 40.1707,97.8545 C39.7527,104.8845 46.4067,120.5915 51.0027,129.8455 C55.6327,139.0995 54.0027,142.5115 54.3367,143.8455 L35.7957,152.9625 C28.9397,144.9605 9.5587,126.7295 14.7797,98.3785 C20.0607,70.0245 51.9987,76.1475 55.2367,67.4155" id="Fill-42" fill="#3C212F" fill-rule="nonzero"></path>
            <path d="M104.5688,56.8003 C104.5688,56.8003 112.5338,102.1653 115.2778,117.4723 C118.0298,132.7823 106.7578,145.3063 90.6178,146.3473 C74.4708,147.3943 62.4008,137.5133 50.6098,144.1913 C38.7758,150.8723 41.3208,149.6893 41.3208,149.6893 C41.3208,149.6893 35.8208,141.1983 45.4908,114.0623 C55.1608,86.8593 104.5688,56.8003 104.5688,56.8003" id="Fill-44" fill="#3C212F" fill-rule="nonzero"></path>
            <path d="M51.9379,126.7397 C51.9379,126.7397 51.8359,162.3617 51.8359,164.6557 C51.8359,167.0337 63.3679,195.3107 75.4379,163.3447 L74.9379,128.2337 L51.9379,126.7397 Z" id="Fill-46" fill="#F5B8A0" fill-rule="nonzero"></path>
            <path d="M39.3051,83.4155 C39.3051,83.4155 31.3011,79.8355 29.4201,81.2615 C27.5781,82.6495 28.6191,100.8455 30.2251,103.4545 C31.8601,106.0635 41.4961,107.1775 41.4961,107.1775 C41.4961,107.1775 38.6411,96.2575 39.3051,83.4155" id="Fill-48" fill="#F5B8A0" fill-rule="nonzero"></path>
            <path d="M87.4184,42.5737 C87.0644,42.5737 33.8734,42.2617 33.0374,43.0967 C32.1664,43.9667 30.0434,81.1887 30.2254,85.1907 C30.3634,89.2277 35.0454,111.0837 36.5024,114.6787 C39.0024,120.8447 56.0704,132.6437 57.2544,133.1307 C58.4714,133.6187 66.2254,133.6907 67.7564,132.6437 C69.2854,131.6027 87.5864,120.0947 91.8364,110.5947 C92.7344,108.5857 98.2274,85.7477 95.5864,79.3447 C92.9084,72.9447 87.4184,42.5737 87.4184,42.5737" id="Fill-50" fill="#F6C9A9" fill-rule="nonzero"></path>
            <path d="M62.2152,107.0092 C59.5842,106.6202 56.5412,105.9232 55.0162,104.0342 C54.4612,103.2492 57.0222,100.4882 58.3362,100.3452 C59.3382,100.2362 60.2192,99.9392 60.2112,99.4702 L59.4612,81.9702 L58.6702,98.5112 C57.3422,98.7692 53.0672,103.1912 54.0612,104.7122 C56.3172,107.1302 59.4422,106.6572 62.2152,107.0092" id="Fill-52" fill="#E19F88" fill-rule="nonzero"></path>
            <path d="M46.1049,110.8237 C46.1049,110.8237 62.1879,117.3647 77.6879,111.3237 C80.5119,110.2217 71.7849,119.0417 68.9379,120.2397 C66.1229,121.4257 56.4579,121.9267 51.6879,117.2397 C50.7459,116.3097 46.1049,110.8237 46.1049,110.8237" id="Fill-54" fill="#C83030" fill-rule="nonzero"></path>
            <path d="M45.4379,110.2397 C45.4379,110.2397 53.2029,113.4817 62.8559,113.6857 C71.3129,113.8647 77.9559,110.8637 78.3959,110.9897 C78.6879,111.0737 77.1459,112.9487 77.1459,112.9487 C72.4789,114.9487 51.7709,115.6567 46.9799,112.0317 L45.4379,110.2397 Z" id="Fill-56" fill="#FEFEFE" fill-rule="nonzero"></path>
            <path d="M69.2709,120.0737 C66.4559,121.2597 56.7909,121.7607 52.0209,117.0737 C51.0789,116.1437 72.1179,118.8757 69.2709,120.0737" id="Fill-58" fill="#9B1C22" fill-rule="nonzero"></path>
            <path d="M42.3481,71.1108 C36.8191,71.7218 32.6571,75.4078 32.6571,75.4078 C43.0281,72.8878 54.3211,74.0928 54.3211,74.0928 L55.3051,72.4648 C49.0021,71.5448 45.5841,70.7518 42.3481,71.1108" id="Fill-60" fill="#331E29" fill-rule="nonzero"></path>
            <path d="M33.5238,84.8452 C33.5238,84.8452 35.0078,83.7672 37.3498,81.0322 C39.6918,78.2982 45.4708,78.8612 47.4618,79.3452 C49.3208,79.7982 51.1368,85.0312 51.3678,85.7142 C51.3828,85.7632 51.3928,85.7902 51.3928,85.7902 C44.2118,89.8022 33.5238,84.8452 33.5238,84.8452 M46.2528,78.0112 C44.0648,77.4452 39.1548,76.9412 36.5808,80.1362 C34.0058,83.3312 32.8988,85.0952 32.8988,85.0952 C32.8988,85.0952 45.1488,91.6572 52.0298,85.6992 C52.0298,85.6992 48.4418,78.5772 46.2528,78.0112" id="Fill-62" fill="#A56938" fill-rule="nonzero"></path>
            <path d="M51.3676,85.7143 C51.1376,85.0303 49.1336,78.9853 47.2736,78.5323 C45.2836,78.0483 40.1446,78.1423 37.3986,80.4703 C34.7196,82.7393 33.5236,84.8453 33.5236,84.8453 C33.5236,84.8453 43.8986,89.9073 51.3926,85.7903 C51.3926,85.7903 51.3836,85.7633 51.3676,85.7143" id="Fill-64" fill="#EDE2D6" fill-rule="nonzero"></path>
            <path d="M38.8969,83.5561 C39.2269,86.0681 41.5399,87.8331 44.0689,87.5031 C46.5919,87.1711 48.3739,84.8671 48.0429,82.3551 C47.7129,79.8431 45.3989,78.0771 42.8739,78.4081 C40.3459,78.7401 38.5649,81.0441 38.8969,83.5561" id="Fill-66" fill="#322521" fill-rule="nonzero"></path>
            <path d="M40.2504,83.3784 C40.4844,85.1464 42.1114,86.3884 43.8894,86.1554 C45.6664,85.9214 46.9184,84.3004 46.6864,82.5324 C46.4554,80.7654 44.8264,79.5234 43.0494,79.7554 C41.2714,79.9894 40.0204,81.6104 40.2504,83.3784" id="Fill-68" fill="#1B1413" fill-rule="nonzero"></path>
            <path d="M44.5043,82.8198 C44.6393,83.8508 45.5903,84.5778 46.6293,84.4408 C47.6663,84.3038 48.3973,83.3568 48.2623,82.3258 C48.1253,81.2948 47.1763,80.5678 46.1373,80.7048 C45.1003,80.8408 44.3673,81.7888 44.5043,82.8198" id="Fill-70" fill="#FEFEFE" fill-rule="nonzero"></path>
            <path d="M42.184,84.5561 C42.217,84.8101 42.452,84.9881 42.707,84.9541 C42.963,84.9211 43.143,84.6891 43.11,84.4351 C43.079,84.1811 42.842,84.0011 42.588,84.0351 C42.33,84.0681 42.151,84.3021 42.184,84.5561" id="Fill-72" fill="#FEFEFE" fill-rule="nonzero"></path>
            <path d="M47.0023,79.2612 C48.7523,80.1792 51.1373,85.0312 51.3673,85.7142 L52.0293,85.6982 C52.0293,85.6982 49.9673,79.1562 46.9183,77.7612 C44.3423,76.5832 39.1543,76.9412 36.5803,80.1362 C34.0063,83.3312 32.8363,85.0932 32.8363,85.0932 L33.6273,85.2612 C33.6273,85.2612 34.9393,83.2772 37.6683,80.9292 C40.4043,78.5742 45.1883,78.3122 47.0023,79.2612" id="Fill-74" fill="#221917" fill-rule="nonzero"></path>
            <path d="M34.7523,83.8881 C34.7523,83.8881 33.2113,83.8041 32.0863,82.2591 C32.0863,82.2591 32.2733,84.6811 32.8983,85.0951" id="Fill-76" fill="#221917" fill-rule="nonzero"></path>
            <path d="M81.0414,71.2358 C86.5724,71.8468 90.7324,75.5328 90.7324,75.5328 C80.3634,73.0128 69.0684,74.2178 69.0684,74.2178 L68.0864,72.5898 C74.3894,71.6698 77.8054,70.8768 81.0414,71.2358" id="Fill-78" fill="#331E29" fill-rule="nonzero"></path>
            <path d="M71.9965,85.9155 C71.9965,85.9155 72.0065,85.8885 72.0215,85.8395 C72.2525,85.1555 74.0705,79.9235 75.9305,79.4705 C77.9205,78.9855 83.6995,78.4235 86.0415,81.1575 C88.3815,83.8925 89.8675,84.9705 89.8675,84.9705 C89.8675,84.9705 79.1785,89.9275 71.9965,85.9155 M71.3615,85.8235 C78.2425,91.7825 90.4925,85.2205 90.4925,85.2205 C90.4925,85.2205 89.3855,83.4565 86.8105,80.2615 C84.2365,77.0655 79.3265,77.5695 77.1375,78.1365 C74.9475,78.7025 71.3615,85.8235 71.3615,85.8235" id="Fill-80" fill="#A56938" fill-rule="nonzero"></path>
            <path d="M72.0219,85.8393 C72.2519,85.1553 74.2579,79.1103 76.1179,78.6573 C78.1079,78.1733 83.2449,78.2673 85.9929,80.5953 C88.6719,82.8643 89.8679,84.9703 89.8679,84.9703 C89.8679,84.9703 79.4929,90.0323 71.9969,85.9153 C71.9969,85.9153 72.0059,85.8883 72.0219,85.8393" id="Fill-82" fill="#EDE2D6" fill-rule="nonzero"></path>
            <path d="M84.4945,83.6811 C84.1645,86.1931 81.8495,87.9581 79.3225,87.6281 C76.7975,87.2961 75.0155,84.9921 75.3485,82.4801 C75.6785,79.9681 77.9925,78.2021 80.5175,78.5331 C83.0435,78.8651 84.8245,81.1691 84.4945,83.6811" id="Fill-84" fill="#322521" fill-rule="nonzero"></path>
            <path d="M83.1391,83.5034 C82.9071,85.2714 81.2781,86.5134 79.5001,86.2804 C77.7231,86.0464 76.4711,84.4254 76.7031,82.6574 C76.9361,80.8904 78.5651,79.6484 80.3401,79.8804 C82.1181,80.1144 83.3711,81.7354 83.1391,83.5034" id="Fill-86" fill="#1B1413" fill-rule="nonzero"></path>
            <path d="M78.8871,82.9448 C78.7501,83.9758 77.7991,84.7028 76.7621,84.5658 C75.7251,84.4288 74.9941,83.4818 75.1291,82.4508 C75.2661,81.4198 76.2151,80.6928 77.2541,80.8298 C78.2911,80.9658 79.0221,81.9138 78.8871,82.9448" id="Fill-88" fill="#FEFEFE" fill-rule="nonzero"></path>
            <path d="M81.2074,84.6811 C81.1724,84.9351 80.9394,85.1131 80.6824,85.0791 C80.4264,85.0461 80.2464,84.8141 80.2794,84.5601 C80.3124,84.3061 80.5474,84.1261 80.8034,84.1601 C81.0594,84.1931 81.2384,84.4271 81.2074,84.6811" id="Fill-90" fill="#FEFEFE" fill-rule="nonzero"></path>
            <path d="M76.3871,79.3862 C74.6371,80.3042 72.2521,85.1562 72.0221,85.8392 L71.3621,85.8232 C71.3621,85.8232 73.4241,79.2812 76.4711,77.8862 C79.0491,76.7082 84.2371,77.0662 86.8111,80.2612 C89.3851,83.4562 90.5531,85.2182 90.5531,85.2182 L89.7621,85.3862 C89.7621,85.3862 88.4501,83.4022 85.7211,81.0542 C82.9851,78.6992 78.2011,78.4372 76.3871,79.3862" id="Fill-92" fill="#221917" fill-rule="nonzero"></path>
            <path d="M88.6371,84.0131 C88.6371,84.0131 90.1801,83.9291 91.3031,82.3841 C91.3031,82.3841 91.1171,84.8061 90.4921,85.2201" id="Fill-94" fill="#221917" fill-rule="nonzero"></path>
            <g id="Group-98" transform="translate(0.000000, 17.622000)">
                <g id="Fill-96-Clipped">
                    <mask id="mask-4" fill="white">
                        <use xlink:href="#path-3"></use>
                    </mask>
                    <g id="path-3"></g>
                    <path d="M48.1781,29.1294 C48.1781,29.1294 42.9031,27.2484 38.1171,38.2074 C29.6681,57.5574 31.0021,78.2234 31.6681,94.2234 C32.3241,109.9594 26.0101,106.3834 31.3361,124.8894 C31.3361,124.8894 -0.3039,111.0274 0.0021,83.8894 C0.1781,72.0944 9.5241,50.3154 15.7461,37.5474 C21.9421,24.8154 31.0591,-0.1296 59.8621,1.0184 C59.8621,1.0184 48.1781,22.7604 48.1781,29.1294" id="Fill-96" fill="#3C212F" fill-rule="nonzero" mask="url(#mask-4)"></path>
                </g>
            </g>
            <path d="M47.8363,46.2202 C47.8363,46.2202 44.7313,43.8502 38.6763,49.9722 C32.5903,56.0952 31.0083,71.9622 31.6683,85.8452 C32.3263,99.7282 31.9613,108.0722 25.8053,121.4642 C19.6503,134.8962 28.5573,144.0092 28.5573,144.0092 C28.5573,144.0092 10.2913,135.7302 14.9823,115.2402 C19.6503,94.7472 25.3503,89.3552 27.2993,71.3332 C29.1803,53.3472 42.0203,32.0952 47.8363,46.2202" id="Fill-99" fill="#4F303F" fill-rule="nonzero"></path>
            <path d="M58.2777,103.1889 C58.2797,103.4859 59.6387,103.7629 61.3127,103.8059 C62.9867,103.8489 64.3417,103.6439 64.3387,103.3469 C64.3367,103.0479 62.9767,102.7709 61.3047,102.7279 C59.6297,102.6849 58.2757,102.8899 58.2777,103.1889" id="Fill-101" fill="#F7D8C1" fill-rule="nonzero"></path>
            <path d="M65.7719,124.644 C63.6919,124.501 56.4749,124.152 57.5079,125.478 C58.5709,126.843 61.0489,128.263 63.5179,127.566 C65.9849,126.871 68.1159,124.804 65.7719,124.644" id="Fill-103" fill="#F5B8A0" fill-rule="nonzero"></path>
            <path d="M48.1781,46.7514 C48.1781,46.7514 58.9261,40.5224 64.6681,48.1794 C70.4101,55.8294 79.7051,68.2694 89.0021,80.1794 C99.0861,93.0954 92.3051,109.7714 91.3361,117.8454 C91.3361,117.8454 105.8191,100.6054 106.0301,75.7304 C106.1311,64.9424 106.0301,48.6634 96.0061,35.2684 C85.9571,21.9094 69.0821,17.5974 58.8851,18.7124 C48.6961,19.8254 48.1781,46.7514 48.1781,46.7514" id="Fill-105" fill="#4F303F" fill-rule="nonzero"></path>
            <path d="M77.3441,97.5024 C77.8261,100.5874 82.0411,102.6814 86.7501,102.1564 C91.4551,101.6334 94.8851,98.7144 94.3971,95.6304 C93.9121,92.5284 89.7001,90.4424 84.9921,90.9584 C80.2801,91.4814 76.8561,94.3984 77.3441,97.5024" id="Fill-107" fill-opacity="0.1" fill="#EC4589" fill-rule="nonzero"></path>
            <path d="M29.7426,94.9038 C29.5006,97.5518 32.9106,100.1968 37.3576,100.7888 C41.8036,101.3808 45.6056,99.7178 45.8426,97.0698 C46.0866,94.4078 42.6776,91.7708 38.2316,91.1738 C33.7816,90.5798 29.9826,92.2398 29.7426,94.9038" id="Fill-109" fill-opacity="0.1" fill="#EC4589" fill-rule="nonzero"></path>
            <path d="M20.7709,163.7397 C14.8649,174.4527 10.0679,214.9727 8.4439,230.4147 C8.4439,230.4147 8.4429,230.4147 8.4429,230.4147 C6.8709,241.9677 3.5449,300.9117 4.1309,306.7167 C4.4889,310.2597 18.3409,305.6857 18.3409,305.6857 C19.9629,288.8597 25.2479,243.4647 25.2479,243.4647 C28.2459,233.6977 32.9329,193.8657 33.9329,189.8757 C39.9469,165.6967 24.7989,156.4327 20.7709,163.7397" id="Fill-111" fill="#3D6A0B" fill-rule="nonzero"></path>
            <path d="M105.9379,160.5756 C104.7829,159.3986 82.9289,173.5536 108.6919,198.7976 C111.2969,201.3516 120.0849,211.3026 126.9149,219.1316 C122.7249,226.9986 116.4249,247.2016 104.9149,271.2166 C104.9149,271.2166 115.1879,278.2026 116.4779,276.2316 C125.7419,262.2316 143.9149,232.6926 143.9149,218.7976 C143.9149,210.5036 130.5929,185.7216 105.9379,160.5756" id="Fill-113" fill="#3D6A0B" fill-rule="nonzero"></path>
            <path d="M101.0328,228.4073 C102.7118,209.7883 110.7798,165.5493 110.7798,165.5493 C100.0898,152.9513 86.6458,149.4103 79.3128,145.2493 L76.7828,153.1113 C72.9808,149.7633 67.144091,165.5493 64.2095572,169.616572 C59.771401,165.5493 55.3198,154.2033 51.6578,156.7303 C51.4388,156.8813 48.6448,146.2383 48.6448,146.2383 C41.5788,150.5413 26.6868,156.5583 23.5198,161.0513 C23.1758,161.5393 30.6998,200.6853 33.2558,225.1863 C35.3388,245.1493 27.0448,263.5423 29.2828,269.9803 C31.5048,276.3723 83.5488,281.6013 99.6488,270.9663 C102.6758,268.9663 98.2128,259.6653 101.0328,228.4073 Z" id="Fill-115" fill="#3D6A0B" fill-rule="nonzero"></path>
            <g id="Group-119" transform="translate(4.000000, 0.622000)">
                <g id="Fill-117-Clipped">
                    <mask id="mask-6" fill="white">
                        <use xlink:href="#path-5"></use>
                    </mask>
                    <g id="path-5"></g>
                    <path d="M110.5053,24.7823 C110.1813,23.1913 105.6373,20.7143 100.5983,17.6543 C93.7763,13.5113 86.2443,8.2303 86.2443,8.2303 L70.8743,4.8473 L55.6623,0.3773 L40.4503,4.8473 L25.0813,8.2303 C25.0813,8.2303 17.5493,13.5113 10.7283,17.6543 C5.6893,20.7143 1.1443,23.1913 0.8193,24.7823 C0.4973,26.3663 2.9673,31.0443 5.0123,36.5013 C7.3843,42.8333 9.3303,49.9113 9.3303,49.9113 L23.8113,57.4023 L55.6623,60.0603 L87.5143,57.4023 L101.9943,49.9113 C101.9943,49.9113 103.9413,42.8333 106.3143,36.5013 C108.3583,31.0443 110.8273,26.3663 110.5053,24.7823" id="Fill-117" fill="#3D6A0B" fill-rule="nonzero" mask="url(#mask-6)"></path>
                </g>
            </g>
            <path d="M59.6625,40.3852 C41.7475,40.3852 27.0785,46.8712 25.7655,55.0982 C25.7015,55.4952 25.6585,55.8942 25.6585,56.2992 C25.6585,57.7152 26.0585,59.0882 26.8015,60.3952 L39.6085,63.9442 C39.6085,63.9442 49.4145,67.2342 51.2345,67.6892 C53.2555,68.1952 59.5995,68.0522 59.5995,68.0522 C59.5995,68.0522 65.9435,68.1952 67.9645,67.6892 C69.7845,67.2342 79.5895,63.9442 79.5895,63.9442 L92.5505,60.3522 C93.1975,59.1982 93.5675,57.9922 93.6415,56.7522 C93.6515,56.6012 93.6665,56.4512 93.6665,56.2992 C93.6665,47.5102 78.4425,40.3852 59.6625,40.3852" id="Fill-120" fill="#58585B" fill-rule="nonzero"></path>
            <g id="Group-4" transform="translate(23.000000, 33.000000)" fill-rule="nonzero">
                <path d="M35.9999999,1.00794196 C26.8344328,1.00610878 7.85358,0.50196692 0,7.84318929 L2.59501207,10 C11.2653258,5.22898455 18.9248592,4.9943294 35.9999999,4.91733318 C53.0751408,4.9943294 60.7346741,5.22898455 69.4040224,10 L72,7.84318929 C64.1464199,0.50196692 45.1655672,1.00610878 35.9999999,1.00794196" id="Fill-101" fill="#F6B939"></path>
                <path d="M0,7.79674946 L2.59501207,10 C5.99915546,5.75388993 18.9248593,3.95520842 36,3.87655434 C53.0751408,3.95520842 65.3954167,5.75467242 69.4040224,10 L72,7.79674946 C64.1464199,0.297458028 45.1655672,-0.00186411008 36,8.53530916e-06 C26.8344329,-0.00186411008 7.85358,0.297458028 0,7.79674946 Z" id="Fill-101-Copy" fill="#DD4132"></path>
            </g>
            <path d="M27.8588,41.4077 C27.8588,39.5227 26.3308,37.9947 24.4458,37.9947 C22.5598,37.9947 21.0328,39.5227 21.0328,41.4077 C21.0328,43.2927 22.5598,44.8207 24.4458,44.8207 C26.3308,44.8207 27.8588,43.2927 27.8588,41.4077" id="Fill-124" fill="#F6B939" fill-rule="nonzero"></path>
            <path d="M98.2934,41.4077 C98.2934,39.5227 96.7654,37.9947 94.8804,37.9947 C92.9954,37.9947 91.4674,39.5227 91.4674,41.4077 C91.4674,43.2927 92.9954,44.8207 94.8804,44.8207 C96.7654,44.8207 98.2934,43.2927 98.2934,41.4077" id="Fill-126" fill="#F6B939" fill-rule="nonzero"></path>
            <path d="M64.1957,170.3515 L56.0917,162.3415 L48.9667,164.3415 C48.9667,164.3415 49.9947,158.7125 46.2257,147.5815 L51.4887,142.8775 L64.1957,170.3515 Z" id="Fill-134" fill="#417505" fill-rule="nonzero"></path>
            <path d="M64.1957,170.3515 L71.8417,160.7995 L79.4667,163.3415 C79.4667,163.3415 78.2427,156.8415 79.8417,145.2495 L75.4377,142.1815 L64.1957,170.3515 Z" id="Fill-136" fill="#417505" fill-rule="nonzero"></path>
            <polygon id="Star" fill="#F6B939" points="60.5 24.9833367 54.6286771 28.0700738 55.75 21.5322597 51 16.902154 57.5643386 15.9482998 60.5 10 63.4356614 15.9482998 70 16.902154 65.25 21.5322597 66.3713229 28.0700738"></polygon>
            <g id="Group-3" transform="translate(94.155793, 154.421363) rotate(12.000000) translate(-94.155793, -154.421363) translate(83.655793, 150.421363)">
                <polygon id="Path" fill="#C93F37" points="1.05351244 3.89907579 0.621490395 1.37159734 3.22990176 0.160626062 20.9019406 3.68854876 19.3762094 7.84805255"></polygon>
                <polygon id="Path-2" fill="#F6B939" points="0.778605648 2.11067955 19.8435714 6.22937024 20.3022463 5.2656896 1.53277059 0.879900267 0.685535965 1.39861262"></polygon>
            </g>
            <g id="Group-3-Copy" transform="translate(37.102197, 154.095663) scale(-1, 1) rotate(12.000000) translate(-37.102197, -154.095663) translate(26.602197, 150.095663)">
                <polygon id="Path" fill="#C93F37" points="1.05351244 3.89907579 0.621490395 1.37159734 3.22990176 0.160626062 20.9019406 3.68854876 19.3762094 7.84805255"></polygon>
                <polygon id="Path-2" fill="#F6B939" points="0.778605648 2.11067955 19.8435714 6.22937024 20.3022463 5.2656896 1.53277059 0.879900267 0.685535965 1.39861262"></polygon>
            </g>
            <g id="Group-2" transform="translate(73.000000, 150.000000)">
                <path d="M0.695174336,11.3482713 C0.754911838,4.74725402 0.903562428,1.25294342 1.14112611,0.865339522 C1.72809677,1.12698594 3.34906069,1.8592415 6.00401785,3.0621062 C5.88557294,7.06931892 6.02686716,10.5149586 6.42790052,13.3990253 C4.58940369,12.6977185 2.67849496,12.0141338 0.695174336,11.3482713 Z" id="Path-3" fill="#C93F37"></path>
                <polygon id="Star" fill="#F6B939" points="3.14049729 7.79878472 2.4356312 8.16935475 2.57024864 7.38447483 2 6.82861978 2.78806424 6.71410734 3.14049729 6 3.49293033 6.71410734 4.28099457 6.82861978 3.71074593 7.38447483 3.84536337 8.16935475"></polygon>
            </g>
            <g id="Group-2-Copy" transform="translate(51.500000, 158.000000) scale(-1, 1) translate(-51.500000, -158.000000) translate(48.000000, 151.000000)">
                <path d="M0.203511206,11.7239236 C0.682043041,5.99982886 1.35963502,2.40134646 2.23628714,0.9284764 C2.82325781,1.19012282 4.39220173,1.92655785 6.94311892,3.13778149 C5.91601818,7.03252207 5.60298449,10.4219257 6.00401785,13.3059924 C4.16552102,12.6046856 2.2320188,12.0773293 0.203511206,11.7239236 Z" id="Path-3" fill="#C93F37"></path>
                <polygon id="Star" fill="#F6B939" points="3.14049729 7.79878472 2.4356312 8.16935475 2.57024864 7.38447483 2 6.82861978 2.78806424 6.71410734 3.14049729 6 3.49293033 6.71410734 4.28099457 6.82861978 3.71074593 7.38447483 3.84536337 8.16935475"></polygon>
            </g>
        </g>
    </g>
</svg>