<?xml version="1.0" encoding="UTF-8"?>
<svg width="59px" height="124px" viewBox="0 0 59 124" version="1.1" xmlns="http://www.w3.org/2000/svg" xmlns:xlink="http://www.w3.org/1999/xlink">
    <!-- Generator: Sketch 51.1 (57501) - http://www.bohemiancoding.com/sketch -->
    <title>items/coinx2</title>
    <desc>Created with Sketch.</desc>
    <defs>
        <ellipse id="path-1" cx="26.5" cy="27.5" rx="26.5" ry="27.5"></ellipse>
        <ellipse id="path-3" cx="29.5" cy="30.5" rx="29.5" ry="30.5"></ellipse>
    </defs>
    <g id="items/coinx2" stroke="none" stroke-width="1" fill="none" fill-rule="evenodd">
        <g id="3-coins">
            <g id="items/coin-single-ver" transform="translate(6.000000, 69.000000)">
                <g id="Group-2">
                    <mask id="mask-2" fill="white">
                        <use xlink:href="#path-1"></use>
                    </mask>
                    <use id="Path-Copy" fill="#F4BF1A" xlink:href="#path-1"></use>
                </g>
                <g id="Group" transform="translate(0.000000, 0.625000)">
                    <ellipse id="Path" fill="#FFD949" cx="24.6294118" cy="27.1875" rx="24.6294118" ry="27.1875"></ellipse>
                    <path d="M26.5132611,41.5808824 L22.286704,41.4181658 L22.3121024,38.2088686 C19.4233195,37.9962774 16.6248032,37.2802758 14.9918159,36.473976 L16.3169401,32.5712844 C18.1221726,33.4180078 20.6611181,34.2253933 23.4644468,34.3333176 C25.9227504,34.4279588 27.6106294,33.7495077 27.6213235,32.3982247 C27.6314829,31.1145058 26.2577991,30.2506041 23.073001,29.2831846 C18.4679154,27.88937 15.3329292,26.079059 15.3588624,22.8021977 C15.3823895,19.8293751 18.0747811,17.601355 22.6951058,17.0695913 L22.7205043,13.8602941 L26.9470614,14.0230107 L26.9235344,16.9958333 C29.8123173,17.2084245 31.7493404,17.7560903 33.1682911,18.3513959 L31.8873644,22.1206196 C30.7689738,21.705847 28.7912288,20.8524822 25.6860031,20.7329353 C22.8826744,20.6250111 21.9694978,21.5360414 21.9620119,22.4819395 C21.9531893,23.596748 23.4570595,24.3642846 27.1143956,25.5864427 C32.2354147,27.2028742 34.2908608,29.1405863 34.2667991,32.1809731 C34.2430047,35.1875778 31.5056135,37.650412 26.540531,38.1351107 L26.5132611,41.5808824 Z" id="$" fill="#DC8744"></path>
                    <path d="M24.6294118,51.419837 C12.5054903,51.419837 2.67710997,40.5706502 2.67710997,27.1875 C2.67710997,13.8043498 12.5054903,2.95516304 24.6294118,2.95516304 C36.7533333,2.95516304 46.5817136,13.8043498 46.5817136,27.1875 C46.5817136,40.5706502 36.7533333,51.419837 24.6294118,51.419837 Z M24.6294118,47.6186861 C34.6448252,47.6186861 42.7639219,38.4713325 42.7639219,27.1875 C42.7639219,15.9036675 34.6448252,6.75631394 24.6294118,6.75631394 C14.6139984,6.75631394 6.49490159,15.9036675 6.49490159,27.1875 C6.49490159,38.4713325 14.6139984,47.6186861 24.6294118,47.6186861 Z" id="Combined-Shape" fill="#DC8744"></path>
                </g>
            </g>
            <g id="items/coin-single-ver">
                <g id="Group-2">
                    <mask id="mask-4" fill="white">
                        <use xlink:href="#path-3"></use>
                    </mask>
                    <use id="Path-Copy" fill="#F4BF1A" xlink:href="#path-3"></use>
                </g>
                <g id="Group" transform="translate(0.000000, 0.693182)">
                    <ellipse id="Path" fill="#FFD949" cx="27.4176471" cy="30.1534091" rx="27.4176471" ry="30.1534091"></ellipse>
                    <path d="M29.5147623,46.1169786 L24.809727,45.9365112 L24.8380008,42.3771089 C21.6221859,42.1413259 18.5068564,41.347215 16.6890026,40.4529552 L18.1641409,36.1245154 C20.1737393,37.0636086 23.0001126,37.9590726 26.1207993,38.0787704 C28.8574014,38.1837362 30.736361,37.4312722 30.7482658,35.9325765 C30.7595753,34.5088156 29.2303801,33.55067 25.6850389,32.4777138 C20.5586228,30.9318467 17.0687325,28.9240473 17.0976016,25.2897102 C17.123792,21.9925796 20.1209827,19.5215028 25.2643631,18.9317285 L25.2926368,15.3723262 L29.9976721,15.5527936 L29.9714817,18.8499242 C33.1872966,19.0857072 35.3436053,19.6931184 36.923192,20.3533663 L35.4972547,24.5337781 C34.2522539,24.0737576 32.0506132,23.1272984 28.5938526,22.9947101 C25.4731659,22.8750123 24.4566107,23.8854277 24.4482774,24.9345147 C24.438456,26.1709386 26.1125757,27.0222065 30.1839499,28.377691 C35.884707,30.1704605 38.172845,32.3195593 38.1460593,35.6916247 C38.1195712,39.0262226 35.0722867,41.7577297 29.5451194,42.2953045 L29.5147623,46.1169786 Z" id="$" fill="#DC8744"></path>
                    <path d="M27.4176471,57.0292737 C13.9212061,57.0292737 2.98017903,44.9965393 2.98017903,30.1534091 C2.98017903,15.3102789 13.9212061,3.27754447 27.4176471,3.27754447 C40.914088,3.27754447 51.8551151,15.3102789 51.8551151,30.1534091 C51.8551151,44.9965393 40.914088,57.0292737 27.4176471,57.0292737 Z M27.4176471,52.8134518 C38.5668809,52.8134518 47.6051206,42.6682051 47.6051206,30.1534091 C47.6051206,17.6386131 38.5668809,7.49336637 27.4176471,7.49336637 C16.2684133,7.49336637 7.23017347,17.6386131 7.23017347,30.1534091 C7.23017347,42.6682051 16.2684133,52.8134518 27.4176471,52.8134518 Z" id="Combined-Shape" fill="#DC8744"></path>
                </g>
            </g>
        </g>
    </g>
</svg>