<?xml version="1.0" encoding="UTF-8"?>
<svg width="1076px" height="704px" viewBox="0 0 1076 704" version="1.1" xmlns="http://www.w3.org/2000/svg" xmlns:xlink="http://www.w3.org/1999/xlink">
    <!-- Generator: Sketch 51.1 (57501) - http://www.bohemiancoding.com/sketch -->
    <title>items/light-wall</title>
    <desc>Created with Sketch.</desc>
    <defs>
        <radialGradient cx="50%" cy="36.9628411%" fx="50%" fy="36.9628411%" r="36.6823242%" gradientTransform="translate(0.500000,0.369628),scale(0.716544,1.000000),rotate(90.000000),translate(-0.500000,-0.369628)" id="radialGradient-1">
            <stop stop-color="#FFFFFF" offset="0%"></stop>
            <stop stop-color="#FFFFFF" stop-opacity="0" offset="100%"></stop>
        </radialGradient>
        <radialGradient cx="50%" cy="36.9628411%" fx="50%" fy="36.9628411%" r="36.6823242%" gradientTransform="translate(0.500000,0.369628),scale(0.786127,1.000000),rotate(90.000000),translate(-0.500000,-0.369628)" id="radialGradient-2">
            <stop stop-color="#FFFFFF" offset="0%"></stop>
            <stop stop-color="#FFFFFF" stop-opacity="0" offset="100%"></stop>
        </radialGradient>
        <radialGradient cx="50%" cy="36.9628411%" fx="50%" fy="36.9628411%" r="36.6823242%" gradientTransform="translate(0.500000,0.369628),scale(0.772727,1.000000),rotate(90.000000),translate(-0.500000,-0.369628)" id="radialGradient-3">
            <stop stop-color="#FFFFFF" offset="0%"></stop>
            <stop stop-color="#FFFFFF" stop-opacity="0" offset="100%"></stop>
        </radialGradient>
    </defs>
    <g id="items/light-wall" stroke="none" stroke-width="1" fill="none" fill-rule="evenodd">
        <g id="light-wall">
            <ellipse id="Oval" fill="url(#radialGradient-1)" cx="518.5" cy="364" rx="474.5" ry="340"></ellipse>
            <ellipse id="Oval-Copy" fill-opacity="0.5" fill="url(#radialGradient-2)" cx="432.5" cy="340" rx="432.5" ry="340"></ellipse>
            <ellipse id="Oval-Copy-2" fill-opacity="0.5" fill="url(#radialGradient-3)" cx="636" cy="354" rx="440" ry="340"></ellipse>
        </g>
    </g>
</svg>