<?xml version="1.0" encoding="UTF-8"?>
<svg width="15px" height="15px" viewBox="0 0 15 15" version="1.1" xmlns="http://www.w3.org/2000/svg" xmlns:xlink="http://www.w3.org/1999/xlink">
    <!-- Generator: Sketch 51.1 (57501) - http://www.bohemiancoding.com/sketch -->
    <title>items/old-coin</title>
    <desc>Created with Sketch.</desc>
    <defs>
        <linearGradient x1="71.9136934%" y1="-0.103937652%" x2="31.0117259%" y2="94.1545751%" id="linearGradient-1">
            <stop stop-color="#FFF8D3" offset="0%"></stop>
            <stop stop-color="#FDD700" offset="92%"></stop>
        </linearGradient>
        <linearGradient x1="71.2064625%" y1="0.869468248%" x2="30.9256728%" y2="94.9082045%" id="linearGradient-2">
            <stop stop-color="#FDD700" offset="0%"></stop>
            <stop stop-color="#F6B11A" offset="92%"></stop>
        </linearGradient>
        <linearGradient x1="26.1258099%" y1="95.4767176%" x2="78.3257911%" y2="-3.22766102%" id="linearGradient-3">
            <stop stop-color="#FDD700" offset="0%"></stop>
            <stop stop-color="#F6B11A" offset="88%"></stop>
        </linearGradient>
        <linearGradient x1="-100.021659%" y1="50%" x2="100%" y2="50%" id="linearGradient-4">
            <stop stop-color="#FFF8D3" offset="0%"></stop>
            <stop stop-color="#FDD700" offset="92%"></stop>
        </linearGradient>
        <linearGradient x1="0%" y1="50%" x2="99.9783479%" y2="50%" id="linearGradient-5">
            <stop stop-color="#FFF8D3" offset="0%"></stop>
            <stop stop-color="#FDD700" offset="92%"></stop>
        </linearGradient>
    </defs>
    <g id="items/old-coin" stroke="none" stroke-width="1" fill="none" fill-rule="evenodd">
        <g id="old-coin" fill-rule="nonzero">
            <path d="M7.4353627,0.0695321232 C3.37237964,0.0695321232 0.0786810868,3.36323067 0.0786810868,7.42621374 C0.0786810868,11.4891968 3.37237964,14.7828954 7.4353627,14.7828954 C11.4983458,14.7828954 14.7920443,11.4891968 14.7920443,7.42621374 C14.7920443,5.47510046 14.0169676,3.60389971 12.6373222,2.22425428 C11.2576767,0.844608854 9.38647598,0.0695321232 7.4353627,0.0695321232 Z M7.7610658,11.3227573 L3.86360732,7.42529884 L7.7610658,3.52784036 L11.6585243,7.42529884 L7.7610658,11.3227573 Z" id="Shape" fill="#DA8F28"></path>
            <path d="M3.86269242,7.42621374 L7.76015091,11.3236722 L11.6576094,7.42621374 L7.76015091,3.52875525 L3.86269242,7.42621374 Z M7.76015091,11.0702459 L4.396077,7.42621374 L7.76015091,4.06213983 L11.264204,7.42621374 L7.76015091,11.0702459 Z" id="Shape" fill="#DA8F28"></path>
            <path d="M7.81778938,1.09330115 C11.2943955,1.12623742 14.0921486,4.02096949 14.0610421,7.54515026 C14.0299356,11.069331 11.1772888,13.9091693 7.70251244,13.8762331 C4.22773607,13.8432968 1.42906811,10.9476498 1.46383417,7.42438394 C1.49860023,3.90111807 4.34392791,1.05944998 7.81778938,1.09330115 Z M7.70525713,13.5276575 C10.9906499,13.558764 13.6886793,10.8744581 13.717956,7.54149068 C13.7472327,4.20852325 11.1004375,1.47115334 7.81412979,1.44004687 C4.52782208,1.40894039 1.82979272,4.0941612 1.80234583,7.42712863 C1.77489893,10.7600961 4.4207792,13.4965511 7.70525713,13.5276575 Z" id="Shape" fill="url(#linearGradient-1)"></path>
            <path d="M7.82602345,0.16834093 C11.8103971,0.206766577 15.0097896,3.51228712 14.9731938,7.55429923 C14.9365979,11.5963113 11.6795669,14.8396189 7.69427837,14.8011933 C3.70898984,14.7627676 0.511427064,11.4554173 0.548937815,7.41523498 C0.586448565,3.37505266 3.8425647,0.129915283 7.82602345,0.16834093 Z M7.70251244,13.8762331 C11.1791186,13.9091693 14.0290208,11.069331 14.0610421,7.54515026 C14.0930635,4.02096949 11.2925657,1.12623742 7.81778938,1.09330115 C4.34301301,1.06036488 1.49219596,3.89928828 1.46383417,7.42438394 C1.43547239,10.9494796 4.23231055,13.8432968 7.70617202,13.8762331 L7.70251244,13.8762331 Z" id="Shape" fill="url(#linearGradient-2)"></path>
            <g id="Group" opacity="0.7" style="mix-blend-mode: soft-light;" transform="translate(0.764351, 0.757772)" fill="#FFF8D3">
                <path d="M13.2539964,2.91390032 C12.8279887,2.16246547 12.2885462,1.49319825 11.6579852,0.933785577 L0.355172946,9.79373886 C0.634311074,10.6239978 1.04017382,11.3980176 1.55595978,12.0837562 L13.2539964,2.91390032 Z" id="Shape"></path>
                <path d="M0,8.29315767 C0.0261971535,8.47583712 0.0579360125,8.65606997 0.0952165771,8.83385622 L10.9136334,0.352310366 C10.7708085,0.256077442 10.6242052,0.166368784 10.4753349,0.0807377922 L0,8.29315767 Z" id="Shape"></path>
            </g>
            <path d="M7.7372785,1.57819622 C11.0226713,1.60930269 13.6712963,4.3466726 13.6411047,7.67964003 C13.6333919,8.66432731 13.3862811,9.63236133 12.9210813,10.5002655 C13.4354309,9.59841086 13.7098023,8.57967702 13.717956,7.54149068 C13.7481476,4.20852325 11.0995226,1.47115334 7.81412979,1.44004687 C5.5981908,1.42687186 3.55872603,2.64688363 2.52236926,4.60558827 C3.58224131,2.72463362 5.57830488,1.56586619 7.7372785,1.57819622 Z" id="Shape" fill="#C37529"></path>
            <path d="M0.548937815,7.41523498 C0.563858595,4.90719807 1.86021073,2.58094317 3.98528854,1.24883353 C1.75689962,2.55623306 0.38171901,4.94055151 0.365958543,7.52410765 C0.329362689,11.56429 3.52967015,14.8716403 7.512214,14.9100659 C8.66729756,14.9224021 9.80793725,14.6526308 10.8351176,14.12417 L11.2632891,13.8826373 C10.1751285,14.4962076 8.9443364,14.8117953 7.69519327,14.7975337 C3.71081963,14.7627676 0.511427064,11.4554173 0.548937815,7.41523498 Z" id="Shape" fill="#DA8F28"></path>
            <path d="M7.90561943,1.53702588 C4.6211415,1.50591941 1.92311214,4.19022532 1.89383546,7.52410765 C1.86455878,10.85799 4.51226884,13.5935301 7.79674676,13.6246366 C11.0812247,13.655743 13.7801689,10.9714371 13.8094456,7.63846969 C13.8387223,4.30550226 11.1919271,1.56904725 7.90561943,1.53702588 Z M7.85164054,11.4782897 L3.95418206,7.58083122 L7.85164054,3.68337274 L11.749099,7.58083122 L7.85164054,11.4782897 Z" id="Shape" fill="url(#linearGradient-3)"></path>
            <polygon id="Shape" fill="#DA8F28" points="8.03370492 3.16737119 7.85164054 2.97798765 3.44641458 7.58174612 7.85164054 12.1855046 8.03370492 11.996121 3.80871354 7.58174612"></polygon>
            <polygon id="Shape" fill="url(#linearGradient-4)" points="12.2577814 7.58174612 8.03370492 3.16737119 8.03370492 3.16737119 12.2577814 7.58174612 8.03370492 11.996121 8.03370492 11.996121"></polygon>
            <path d="M8.03370492,3.16737119 L3.80871354,7.58174612 L8.03279002,11.996121 L12.2596112,7.58174612 L8.03370492,3.16737119 Z M5.03192997,7.58174612 L8.03370492,4.4454814 L11.0354799,7.58174612 L8.03370492,10.7180108 L5.03192997,7.58174612 Z" id="Shape" fill="#DA8F28"></path>
            <path d="M8.03370492,3.16737119 L3.80871354,7.58174612 L8.03279002,11.996121 L12.2596112,7.58174612 L8.03370492,3.16737119 Z M5.03192997,7.58174612 L8.03370492,4.4454814 L11.0354799,7.58174612 L8.03370492,10.7180108 L5.03192997,7.58174612 Z" id="Shape" fill="url(#linearGradient-5)"></path>
        </g>
    </g>
</svg>