<?xml version="1.0" encoding="UTF-8"?>
<svg width="34px" height="42px" viewBox="0 0 34 42" version="1.1" xmlns="http://www.w3.org/2000/svg" xmlns:xlink="http://www.w3.org/1999/xlink">
    <!-- Generator: Sketch 51.1 (57501) - http://www.bohemiancoding.com/sketch -->
    <title>coffee-cup</title>
    <desc>Created with Sketch.</desc>
    <defs>
        <path d="M0.0956312849,3.99911111 C0.0956312849,6.14666667 6.11059777,7.8877037 13.5307709,7.8877037 C20.9507933,7.8877037 26.9657598,6.14666667 26.9657598,3.99911111 C26.9657598,1.8517037 20.9507933,0.110962963 13.5307709,0.110962963 C6.11059777,0.110962963 0.0956312849,1.8517037 0.0956312849,3.99911111" id="path-1"></path>
        <path d="M0.0956312849,3.99911111 C0.0956312849,6.14666667 6.11059777,7.8877037 13.5307709,7.8877037 C20.9507933,7.8877037 26.9657598,6.14666667 26.9657598,3.99911111 C26.9657598,1.8517037 20.9507933,0.110962963 13.5307709,0.110962963 C6.11059777,0.110962963 0.0956312849,1.8517037 0.0956312849,3.99911111" id="path-3"></path>
        <path d="M12.0530682,0.102108696 C9.17992045,0.133913043 6.41431818,0.476608696 4.05511364,1.09321739 C2.91805682,1.38980435 1.74332955,1.90232609 0.832,2.49884783 C0.52,2.70291304 0.277136364,2.89145652 0.0889318182,3.05595652 C0.856965909,4.98323913 2.387125,5.06541304 3.64576136,5.63606522 C5.61540909,6.52932609 8.14198864,6.70463043 10.8058068,6.86791304 C11.3848977,6.90336957 11.9793523,6.92117391 12.5723295,6.92117391 C16.7971818,6.92117391 21.0474432,6.43436957 23.9814545,4.86180435 C25.088375,4.26832609 25.5850341,3.3215 25.9094432,2.94547826 C25.894375,2.91976087 25.8785682,2.89434783 25.861875,2.86878261 C25.3111477,2.3596087 24.0980114,1.59113043 21.8717614,1.07145652 C19.0659773,0.416652174 16.0634205,0.0984565217 12.692875,0.0984565217 C12.4802955,0.0984565217 12.2669773,0.0995217391 12.0530682,0.102108696" id="path-5"></path>
        <path d="M0.0956312849,3.99911111 C0.0956312849,6.14666667 6.11059777,7.8877037 13.5307709,7.8877037 C20.9507933,7.8877037 26.9657598,6.14666667 26.9657598,3.99911111 C26.9657598,1.8517037 20.9507933,0.110962963 13.5307709,0.110962963 C6.11059777,0.110962963 0.0956312849,1.8517037 0.0956312849,3.99911111" id="path-7"></path>
    </defs>
    <g id="Symbols" stroke="none" stroke-width="1" fill="none" fill-rule="evenodd">
        <g id="garden" transform="translate(-606.000000, -977.000000)">
            <g id="coffee-cup" transform="translate(606.000000, 977.000000)">
                <g id="Group-29" transform="translate(0.000000, 18.000000)">
                    <path d="M33.5639425,20.5962116 C33.4505088,22.4410655 27.0321814,23.9185944 19.2270752,23.8949258 C11.4228717,23.871812 5.18868584,22.3568387 5.30166814,20.5118923 C5.4155531,18.6668535 11.8334292,17.1894171 19.6385354,17.2129932 C27.4431903,17.236107 33.6770752,18.7509879 33.5639425,20.5962116" id="Fill-1" fill="#A2B2B2"></path>
                    <path d="M33.383908,20.4370405 C33.2733327,22.2392725 26.9269168,23.6810211 19.2093681,23.6581847 C11.4919699,23.6350708 5.32548319,22.1559702 5.43620885,20.3538307 C5.5472354,18.551876 11.8935009,17.1096651 19.6110496,17.132594 C27.3284478,17.1557079 33.4946336,18.6350858 33.383908,20.4370405" id="Fill-3" fill="#FFFFFF"></path>
                    <path d="M28.274069,19.8512434 C28.2056177,20.9667172 24.2771133,21.8591886 19.5002637,21.8449505 C14.7234142,21.8307123 10.9063876,20.9151271 10.9751398,19.7997458 C11.0437416,18.6843645 14.9719451,17.7916157 19.7489451,17.8057614 C24.5256442,17.820092 28.3425204,18.7358622 28.274069,19.8512434" id="Fill-5" fill="#404041"></path>
                    <path d="M12.0046929,13.7145394 C12.0022858,13.7129051 12.0009319,13.7123109 11.9985248,13.7111223 C11.9081088,13.6454537 11.8124274,13.5842423 11.7098257,13.5298651 C11.536215,13.4491909 11.2748965,13.3732709 11.0675867,13.3484594 C10.6896752,13.3032937 10.3116133,13.251888 9.93505575,13.1997394 C9.11348938,13.085488 8.3050115,12.913888 7.51293186,12.7075223 C6.11502035,12.3433737 3.42721504,11.6039337 2.82845398,10.425168 C2.31965752,9.42320229 3.18094071,8.13271086 4.66219735,8.42257371 C5.4220823,8.57159086 6.06642743,9.23288229 6.84586991,9.43568229 C9.6600469,10.1675451 7.89625929,6.88589943 6.78734779,6.26591086 C5.75079912,5.68633371 4.28503805,5.66761371 3.09052478,5.96223086 C-0.0177672566,6.72826514 -0.495572566,9.23184229 0.405577876,11.084528 C1.27002035,12.860848 3.43338319,13.9433394 5.56364867,14.629888 C6.5901177,14.9607566 7.66848938,15.1929737 8.75588761,15.3571451 C9.86329469,15.5245851 11.018392,15.7143109 12.0046929,15.1892594 C12.7021442,14.8176823 12.6864982,14.0881966 12.0046929,13.7145394" id="Fill-7" fill="#DDDDDC"></path>
                    <path d="M6.19795929,12.3392434 C6.30402124,12.655552 6.3247823,12.9781006 6.2128531,13.2851977 C6.16275575,13.4223291 6.09249912,13.5356891 6.00539292,13.6286949 C5.66930442,13.8329806 5.22309204,13.9502034 4.74558761,13.9842263 C4.25349027,13.9551063 3.70813628,13.8209463 3.20926903,13.6671749 C3.95110088,14.0549463 4.75942832,14.3709577 5.56354336,14.6299177 C6.56955221,14.953952 7.62535752,15.1834949 8.69049027,15.347072 C8.80347257,14.5278491 8.23810973,13.5683749 7.81807434,12.9278834 C7.78046372,12.8705349 7.74149912,12.812592 7.70208319,12.7545006 C7.63889735,12.7383063 7.57556106,12.7238949 7.51282655,12.707552 C7.14379115,12.6111291 6.68464071,12.4885577 6.19795929,12.3392434" id="Fill-9" fill="#C8D8D8"></path>
                    <path d="M3.28336195,10.974392 C3.08492832,10.8030891 2.92771593,10.6203463 2.82842389,10.425272 C2.31962743,9.42315771 3.18091062,8.13281486 4.6623177,8.42267771 C5.42205221,8.57154629 6.06639735,9.23298629 6.84583982,9.43578629 C7.05660973,9.49046057 7.67206991,9.65314629 7.87306106,9.49372914 C8.05569823,9.34842629 7.8122823,9.06272343 7.77557434,8.89097486 C7.62799027,8.201752 7.46806991,7.60924914 7.14145929,6.95018629 C6.9133885,6.489912 6.60753894,5.47086057 5.77619381,5.49894057 C5.13365398,5.52078057 5.02292832,6.23897486 5.00066283,6.61961486 C4.97583982,7.04170629 5.10236195,7.32681486 4.47757434,7.49262057 C4.10267168,7.59216343 3.69301681,7.52515771 3.31871593,7.64609486 C2.57101681,7.88707771 2.10449469,8.47690629 2.00866283,9.09971771 C1.90545929,9.76977486 2.46811416,10.657192 3.28336195,10.974392" id="Fill-11" fill="#A4BABA"></path>
                    <path d="M33.6664991,4.943536 C33.3601982,3.981536 32.3708885,3.02191314 31.539092,2.49715886 C30.1077823,1.59443886 28.3685168,1.22122743 26.7274903,0.881741714 C23.0861805,0.127741714 19.3243664,-0.0444525714 15.6242336,0.325490286 C12.7680832,0.610896 9.48106549,0.963753143 7.14830442,2.78880457 C6.11295929,3.598816 5.47854336,4.77253029 5.29199469,6.05559314 C5.18427788,6.79592457 5.34284425,7.56686171 5.51916283,8.29144457 C5.75565841,9.26399314 6.02645487,10.2310446 6.2578354,11.2050789 C7.14018053,14.9208503 8.69094159,18.5284617 12.9280035,20.6193074 C16.8847912,22.5716846 21.9769681,22.5040846 25.9587292,20.683936 C27.6525611,19.9098789 29.1464549,18.866016 30.1554726,17.5287246 C31.0683575,16.3177189 31.7262425,15.0101417 32.2929593,13.6811703 C33.4357204,11.0006446 34.5703575,7.78243886 33.6664991,4.943536" id="Fill-13" fill="#DDDDDC"></path>
                    <path d="M4.30677699,6.52668343 C2.85109558,6.185712 1.31643186,7.06272914 0.844343363,8.12650057 C0.552936283,8.78303771 0.505546903,9.44908343 0.655538053,10.1331063 C0.779953982,10.700352 1.16087434,11.4411291 1.76580354,11.7789806 C1.99718407,11.907792 2.29114867,11.7329234 2.29972389,11.5353234 C2.31913097,11.0835177 1.87848496,10.6621691 1.69975929,10.2470606 C1.45619292,9.68263771 1.51471504,9.07260343 1.72277699,8.50922057 C1.92692743,7.95638629 2.41120177,7.54558629 3.07284779,7.32540343 C3.54493628,7.168512 4.00438761,7.08783771 4.40396283,6.81862629 C4.53484779,6.73052343 4.45481239,6.56130057 4.30677699,6.52668343" id="Fill-17" fill="#FFFFFF"></path>
                    <path d="M6.4505823,5.84737029 C6.49360885,5.95969029 7.31006018,5.19692457 7.3615115,5.08713029 C7.57107788,4.63799886 7.80832566,4.60130171 8.47403363,4.25691314 C9.19946726,3.88102743 10.2119451,3.64628457 11.1965912,3.47275314 C13.4219363,3.08052457 15.8663257,2.57761029 18.2184938,2.52486743 C20.9530867,2.46350743 23.5817681,2.56498171 26.2050336,2.979496 C27.6199451,3.20294743 28.9701664,3.52519886 30.2326796,3.90524457 C30.8365558,4.08665029 31.3898832,4.29985029 31.8508389,4.562376 C32.3014142,4.81895886 32.3289451,5.090696 32.3614407,5.40849029 C32.3831044,5.62139314 33.1154584,5.96934743 33.3182549,5.73356457 C33.3182549,5.73356457 35.2255646,0.931587429 20.1479186,0.931587429 C4.95398053,0.931587429 6.2486885,5.50417029 6.4505823,5.84737029" id="Fill-21" fill="#CCCBCB"></path>
                    <path d="M32.666869,5.28899429 C31.905931,6.90545143 28.6696124,7.61740571 26.6878336,8.48328 C26.6234442,8.51121143 26.6034354,8.55117714 26.5957628,8.58564571 C27.2300283,8.4552 27.8487982,8.30053714 28.4454531,8.11749714 C30.0524796,7.62498286 31.705692,7.04169143 32.7187717,6.18532571 C33.7292938,5.33044571 33.452931,4.52132571 32.5761522,3.84458286 C32.8344619,4.30886857 32.9003558,4.79276571 32.666869,5.28899429" id="Fill-23" fill="#878F8C"></path>
                    <path d="M33.3641398,5.34775429 C33.3641398,7.50144571 27.3649451,9.24745714 19.9643788,9.24745714 C12.5636619,9.24745714 6.56431681,7.50144571 6.56431681,5.34775429 C6.56431681,3.19406286 12.5636619,1.44849714 19.9643788,1.44849714 C27.3649451,1.44849714 33.3641398,3.19406286 33.3641398,5.34775429" id="Fill-25" fill="#AA784B"></path>
                    <path d="M33.3641398,5.34775429 C33.3641398,7.50144571 27.3649451,9.24745714 19.9643788,9.24745714 C12.5636619,9.24745714 6.56431681,7.50144571 6.56431681,5.34775429 C6.56431681,3.19406286 12.5636619,1.44849714 19.9643788,1.44849714 C27.3649451,1.44849714 33.3641398,3.19406286 33.3641398,5.34775429" id="Fill-27" fill="#AA784B"></path>
                </g>
                <g id="Group-36" transform="translate(6.000000, 19.000000)">
                    <g id="Group-32">
                        <mask id="mask-2" fill="white">
                            <use xlink:href="#path-1"></use>
                        </mask>
                        <g id="Clip-31"></g>
                        <path d="M2.09802067,1.71134815 C3.10501508,1.23979259 4.31518827,0.88082963 5.3897581,0.679940741 C7.77118827,0.234755556 10.3823447,0.0338666667 12.8741883,0.0140148148 C16.0224788,-0.0114666667 19.0151045,0.1632 21.9943056,0.66082963 C24.2398307,1.0354963 26.8571715,1.86068148 27.2780095,3.3432 C27.6893447,4.79060741 26.0310318,5.86631111 24.0743615,6.61682963 C20.5587804,7.96542222 15.8428307,8.46438519 11.6937302,8.28260741 C9.34850112,8.17979259 7.03932235,7.84779259 4.9815905,7.18008889 C3.33097039,6.64438519 1.63283631,6.00971852 0.592205028,5.07801481 C-0.869264246,3.77001481 0.287512291,2.5589037 2.09802067,1.71134815" id="Fill-30" fill="#AA784B" mask="url(#mask-2)"></path>
                    </g>
                    <g id="Group-35">
                        <mask id="mask-4" fill="white">
                            <use xlink:href="#path-3"></use>
                        </mask>
                        <g id="Clip-34"></g>
                        <path d="M13.1907369,6.8749037 C12.6471168,6.8749037 12.1012341,6.86245926 11.5684743,6.83801481 C9.10544078,6.72468148 6.92628436,6.35016296 5.0916419,5.72497778 C3.60106089,5.21712593 1.95436257,4.58245926 1.04269777,3.72527407 C0.834239665,3.52927407 0.769530168,3.40097778 0.752032961,3.35771852 C0.806183799,3.20201481 1.17377598,2.71505185 2.3138095,2.15460741 C3.18716145,1.72512593 4.30758603,1.35742222 5.38803855,1.14527407 C7.55377039,0.720237037 10.0881503,0.483644444 12.7174073,0.461718519 C12.9118374,0.460237037 13.1061168,0.459348148 13.2993402,0.459348148 C16.375681,0.459348148 19.1186698,0.678014815 21.6854799,1.12808889 C24.7238095,1.66068148 26.0365525,2.63105185 26.1780385,3.15297778 C26.2901112,3.56808889 25.528681,4.37016296 23.5919212,5.15045926 C20.8706531,6.24645926 17.0794911,6.8749037 13.1907369,6.8749037" id="Fill-33" fill="#C28F5F" mask="url(#mask-4)"></path>
                    </g>
                </g>
                <g id="Group-39" transform="translate(7.000000, 19.000000)">
                    <mask id="mask-6" fill="white">
                        <use xlink:href="#path-5"></use>
                    </mask>
                    <g id="Clip-38"></g>
                    <path d="M12.0530682,0.102108696 C9.17992045,0.133913043 6.41431818,0.476608696 4.05511364,1.09321739 C2.91805682,1.38980435 1.74332955,1.90232609 0.832,2.49884783 C0.52,2.70291304 0.277136364,2.89145652 0.0889318182,3.05595652 C0.856965909,4.98323913 2.387125,5.06541304 3.64576136,5.63606522 C5.61540909,6.52932609 8.14198864,6.70463043 10.8058068,6.86791304 C11.3848977,6.90336957 11.9793523,6.92117391 12.5723295,6.92117391 C16.7971818,6.92117391 21.0474432,6.43436957 23.9814545,4.86180435 C25.088375,4.26832609 25.5850341,3.3215 25.9094432,2.94547826 C25.894375,2.91976087 25.8785682,2.89434783 25.861875,2.86878261 C25.3111477,2.3596087 24.0980114,1.59113043 21.8717614,1.07145652 C19.0659773,0.416652174 16.0634205,0.0984565217 12.692875,0.0984565217 C12.4802955,0.0984565217 12.2669773,0.0995217391 12.0530682,0.102108696" id="Fill-37" mask="url(#mask-6)"></path>
                </g>
                <g id="Group-42" transform="translate(6.000000, 19.000000)">
                    <mask id="mask-8" fill="white">
                        <use xlink:href="#path-7"></use>
                    </mask>
                    <g id="Clip-41"></g>
                    <path d="M12.8747615,7.76148148 C12.2714095,7.76148148 11.6688117,7.74074074 11.0835603,7.7 C8.39426983,7.51259259 6.06110782,6.84622222 3.96657151,6.05259259 C3.15807989,5.74622222 2.76620279,5.56785185 2.19437598,5.24577778 C1.75573911,4.99911111 0.751459777,4.36059259 1.04348212,3.61496296 C1.21242067,3.18385185 2.99291229,2.54711111 3.53954916,2.39422222 C5.7568676,1.77377778 7.81972793,1.34074074 10.0046162,1.17985185 C10.7841469,1.12251852 11.5648844,1.08755556 12.3460743,1.0762963 C12.5643369,1.07333333 12.7818453,1.072 12.9982978,1.072 C15.834957,1.072 18.6791581,1.32785185 21.4566888,1.97777778 C22.2072587,2.15348148 22.9540575,2.32311111 23.6916553,2.56088889 C24.1388899,2.70488889 25.743957,3.08059259 25.6213257,3.84755556 C25.5327838,4.40444444 24.9297335,4.7962963 24.5573145,5.02340741 C21.5999849,6.82622222 17.1520743,7.76148148 12.8747615,7.76148148" id="Fill-40" fill="#131416" mask="url(#mask-8)"></path>
                </g>
                <g id="Group-62" transform="translate(6.000000, 0.000000)">
                    <path d="M3.27792216,20.4458179 C3.27792216,20.4458179 1.80254919,20.9938123 1.18987892,21.6657955 L1.28916541,21.7712313 C1.28916541,21.7712313 2.65813838,20.6753933 3.27792216,20.4458179" id="Fill-43" fill="#B18661"></path>
                    <path d="M25.8339957,20.7833631 C25.8339957,20.7833631 26.4834443,21.1011788 26.8392714,21.4014972 L26.8118768,21.4800838 L25.8339957,20.7833631 Z" id="Fill-45" fill="#B18661"></path>
                    <path d="M13.96696,25.7115268 C6.91913297,25.7115268 1.20577081,24.0603034 1.20577081,22.0245939 C1.20577081,19.9872251 6.91913297,18.336605 13.96696,18.336605 C21.0155438,18.336605 26.7286032,19.9872251 26.7286032,22.0245939 C26.7286032,24.0603034 21.0155438,25.7115268 13.96696,25.7115268 M13.96696,17.9758006 C6.27240865,17.9758006 0.0343113514,19.913767 0.0343113514,22.3036441 C0.0343113514,25.329605 6.27240865,26.9987782 13.96696,26.9987782 C21.6618141,26.9987782 27.8994573,25.9791134 27.8994573,22.3036441 C27.8994573,19.913767 21.6618141,17.9758006 13.96696,17.9758006" id="Fill-47" fill="#DDDDDC"></path>
                    <path d="M11.9213557,26.0805218 C11.9148476,26.1093318 11.9024368,26.1420637 11.8798854,26.1785665 C11.6490746,26.5607899 10.3510854,26.2579073 10.0047935,26.2179352 C8.69742054,26.0669464 7.40578811,25.9150525 6.11703135,25.6464101 C5.4675827,25.5108067 4.82206919,25.3405106 4.18987459,25.1438179 C1.70286919,24.3715274 0.27608,23.3361754 0.27608,22.3035385 C0.27608,21.4579408 1.23307459,20.6103821 2.94531243,19.9073263 C1.65443676,20.5244045 0.963366486,21.2517453 0.963366486,22.0244883 C0.963366486,23.1192704 2.35201514,24.1238514 4.87292324,24.8523989 C6.84260973,25.4215106 8.88842595,25.6800469 10.9337881,25.8343542 C11.08968,25.8459687 11.9808368,25.827114 11.9213557,26.0805218" id="Fill-49" fill="#FFFFFF"></path>
                    <path d="M24.7669232,22.5059179 C24.7640476,23.5875771 21.40768,24.463795 17.2644368,24.463795 C13.1207395,24.463795 14.9039611,22.7044207 15.8411286,22.5059179 C20.8797665,21.4394933 13.1207395,20.5481916 17.2644368,20.5481916 C21.40768,20.5481916 24.7685881,21.8432866 24.7669232,22.5059179" id="Fill-51" fill="#FFFFFF" opacity="0.5"></path>
                    <path d="M18.6575957,25.7475469 C18.6575957,25.7475469 17.526547,25.8395581 17.2910443,26.0620441 C17.0553903,26.2849827 18.0801903,26.5542285 20.3038443,26.1305246 C22.5279524,25.7066698 25.07792,24.9591168 25.6563849,24.2323793 C26.234547,23.5053402 25.23472,24.0565022 23.9246227,24.5906196 C22.6143741,25.1248877 18.6575957,25.7475469 18.6575957,25.7475469" id="Fill-53" fill="#FFFFFF"></path>
                    <g id="Group-61" transform="translate(9.535135, 0.000000)" fill="#FFFFFF">
                        <path d="M0.00605405405,0.0962497207 C0.00635675676,0.0965513966 4.68114595,3.3183 2.52908108,7.25170223 C0.377167568,11.1852553 2.52908108,14.7955626 2.52908108,14.7955626 C2.20594595,14.2158922 2.30780541,13.0832497 2.33535135,12.4667749 C2.40058378,10.9958028 2.69027027,9.50899274 3.33744865,8.15823855 C3.76895135,7.25728324 4.41673514,6.4070095 4.51814054,5.40016592 C4.69128649,3.68227207 3.21878919,2.37405419 1.89643243,1.40492011 C1.28058378,0.953462011 0.647481081,0.515730168 0.00605405405,0.0962497207" id="Fill-55"></path>
                        <path d="M5.04579676,2.80712514 C5.04594811,2.80742682 7.09464,4.84283464 5.70659676,6.83253855 C4.31855351,8.82209162 5.53965622,10.8584045 5.53965622,10.8585553 C5.39980757,10.5279184 5.52119135,9.92486816 5.57204541,9.59483464 C5.69342919,8.80776201 5.93665081,8.02521453 6.36391568,7.33663911 C6.64891027,6.87733743 7.04696432,6.45785698 7.16078054,5.92238212 C7.35466162,5.00875642 6.63952649,4.21942123 5.98538595,3.62119777 C5.68086703,3.34229832 5.36620757,3.07018659 5.04579676,2.80712514" id="Fill-57"></path>
                        <path d="M4.69986811,7.14070056 C4.69986811,7.14070056 2.66600865,11.7949575 4.25459243,14.6292034 C5.75736,17.3100469 4.03195459,18.900181 4.03195459,18.900181 C4.03195459,18.900181 6.74356541,17.7085609 5.27500324,14.721667 C3.45681946,11.0237229 4.69986811,7.14070056 4.69986811,7.14070056" id="Fill-59"></path>
                    </g>
                </g>
            </g>
        </g>
    </g>
</svg>