<?xml version="1.0" encoding="UTF-8"?>
<svg width="204px" height="58px" viewBox="0 0 204 58" version="1.1" xmlns="http://www.w3.org/2000/svg" xmlns:xlink="http://www.w3.org/1999/xlink">
    <!-- Generator: Sketch 51.1 (57501) - http://www.bohemiancoding.com/sketch -->
    <title>64,5%</title>
    <desc>Created with Sketch.</desc>
    <defs></defs>
    <g id="Welcome" stroke="none" stroke-width="1" fill="none" fill-rule="evenodd">
        <path d="M31.598,0.148 L31.598,8.806 C30.34,8.732 29.008,8.806 27.232,8.954 C17.242,9.768 12.802,14.874 11.544,20.498 L11.766,20.498 C14.134,18.056 17.464,16.65 21.978,16.65 C30.044,16.65 36.852,22.348 36.852,32.338 C36.852,41.884 29.526,49.728 19.092,49.728 C6.29,49.728 0,40.182 0,28.712 C0,19.684 3.33,12.136 8.51,7.326 C13.32,2.96 19.536,0.592 27.084,0.222 C29.156,0.074 30.488,0.074 31.598,0.148 Z M18.944,41.44 C22.94,41.44 25.456,37.814 25.456,32.93 C25.456,28.49 23.088,24.642 18.278,24.642 C15.244,24.642 12.728,26.492 11.618,28.934 C11.322,29.526 11.174,30.414 11.174,31.746 C11.396,36.852 13.838,41.44 18.944,41.44 Z M72.52,48.914 L61.864,48.914 L61.864,37.444 L40.552,37.444 L40.552,30.118 L58.756,0.814 L72.52,0.814 L72.52,29.008 L78.292,29.008 L78.292,37.444 L72.52,37.444 L72.52,48.914 Z M51.06,29.008 L61.864,29.008 L61.864,18.352 C61.864,15.466 62.012,12.506 62.234,9.398 L61.938,9.398 C60.384,12.506 59.126,15.318 57.498,18.352 L51.06,28.86 L51.06,29.008 Z M87.542,57.054 L80.068,57.72 C82.362,51.134 84.36,43.438 85.396,36.704 L96.866,35.964 C94.424,43.512 91.094,51.282 87.542,57.054 Z M134.384,0.814 L134.384,10.064 L115.736,10.064 L114.7,17.464 C115.736,17.316 116.624,17.316 117.808,17.316 C122.396,17.316 127.058,18.352 130.462,20.794 C134.088,23.236 136.308,27.232 136.308,32.856 C136.308,41.81 128.612,49.728 115.662,49.728 C109.816,49.728 104.932,48.396 102.268,46.99 L104.266,38.554 C106.412,39.59 110.778,40.922 115.144,40.922 C119.806,40.922 124.764,38.702 124.764,33.596 C124.764,28.638 120.842,25.604 111.222,25.604 C108.558,25.604 106.708,25.752 104.71,26.048 L107.892,0.814 L134.384,0.814 Z M155.696,0 C163.984,0 168.646,6.068 168.646,14.282 C168.646,24.346 162.282,29.6 155.326,29.6 C148,29.6 142.228,24.124 142.228,15.096 C142.228,6.512 147.482,0 155.696,0 Z M155.474,6.142 C152.144,6.142 150.59,9.99 150.59,14.8 C150.59,19.832 152.292,23.458 155.548,23.458 C158.73,23.458 160.284,20.202 160.284,14.8 C160.284,9.916 158.952,6.142 155.474,6.142 Z M161.912,49.728 L155.918,49.728 L183.52,0 L189.588,0 L161.912,49.728 Z M190.328,19.98 C198.616,19.98 203.278,26.048 203.278,34.262 C203.278,44.326 196.914,49.58 189.958,49.58 C182.706,49.58 176.934,44.104 176.86,35.076 C176.86,26.492 182.114,19.98 190.328,19.98 Z M190.18,26.122 C186.776,26.122 185.296,29.97 185.296,34.78 C185.222,39.812 186.924,43.438 190.18,43.438 C193.362,43.438 194.916,40.182 194.916,34.78 C194.916,29.896 193.658,26.122 190.18,26.122 Z" id="64,5%" fill="#414042"></path>
    </g>
</svg>