<?xml version="1.0" encoding="UTF-8"?>
<svg width="28px" height="30px" viewBox="0 0 28 30" version="1.1" xmlns="http://www.w3.org/2000/svg" xmlns:xlink="http://www.w3.org/1999/xlink">
    <!-- Generator: Sketch 51.1 (57501) - http://www.bohemiancoding.com/sketch -->
    <title>o-character</title>
    <desc>Created with Sketch.</desc>
    <defs></defs>
    <g id="Welcome" stroke="none" stroke-width="1" fill="none" fill-rule="evenodd">
        <g id="13.-Statistic" transform="translate(-613.000000, -768.000000)" fill="#ED1B2E">
            <path d="M627.268,768.421155 C635.908,768.421155 640.588,774.685155 640.588,782.317155 C640.588,792.109155 633.964,797.365155 626.836,797.365155 C619.204,797.365155 613.372,791.749155 613.372,783.181155 C613.372,775.189155 618.484,768.421155 627.268,768.421155 Z M626.98,775.333155 C624.028,775.333155 622.876,778.645155 622.876,782.893155 C622.876,787.357155 624.244,790.453155 627.124,790.453155 C629.716,790.453155 631.084,787.861155 631.084,782.893155 C631.084,778.573155 630.004,775.333155 626.98,775.333155 Z" id="o-character"></path>
        </g>
    </g>
</svg>