<?xml version="1.0" encoding="UTF-8"?>
<svg width="112px" height="92px" viewBox="0 0 112 92" version="1.1" xmlns="http://www.w3.org/2000/svg" xmlns:xlink="http://www.w3.org/1999/xlink">
    <!-- Generator: Sketch 52.5 (67469) - http://www.bohemiancoding.com/sketch -->
    <title>heart-health</title>
    <desc>Created with Sketch.</desc>
    <g id="Page-1" stroke="none" stroke-width="1" fill="none" fill-rule="evenodd">
        <g id="10-P-Dream---Healthy" transform="translate(-372.000000, -496.000000)">
            <g id="popup" transform="translate(76.000000, 184.000000)">
                <g id="heart-copy-3" transform="translate(296.000000, 312.000000)">
                    <g id="items/health">
                        <path d="M56,92 C56,92 25.2401923,74.6024183 9.18507315,52.4989334 C-0.117893088,39.6646519 -1.46832367,28.5416079 1.23253749,19.842817 C5.1337814,7.29374174 19.9885178,-5.11273043 40.6951201,2.16002912 C50.7483255,5.72510733 56,9.71799493 56,9.71799493 C56,9.71799493 61.2516745,5.72510733 71.3048799,2.16002912 C92.0114822,-5.11273043 106.866219,7.29374174 110.767463,19.842817 C113.468324,28.3990047 112.117893,39.5220488 102.814927,52.4989334 C86.7598077,74.6024183 56,92 56,92 Z" id="Shape" fill="#ED1B2E" fill-rule="nonzero"></path>
                        <g id="hospital" stroke-width="1" fill-rule="evenodd" transform="translate(1.000000, 1.000000)">
                            <path d="M43.4643254,19.0955927 C43.6921462,18.4664473 44.3307784,18.0788813 45.0000838,18.165642 C45.669127,18.2518833 46.1869015,18.7882934 46.2443155,19.454325 L48.5374665,46 L52.8314554,30.6641268 C53.0071055,30.0370595 53.5870129,29.6063728 54.2460939,29.6227379 C54.9022911,29.6370249 55.4651578,30.0910901 55.6127563,30.7249112 L58.0039568,41.0034635 L62.0866412,24.006927 C62.2460371,23.3419344 62.861861,22.8865703 63.5500423,22.9156637 C64.23901,22.948134 64.8076444,23.4619448 64.9035965,24.1386267 L67.9504699,45.6617889 L69.3163458,41.2873842 C69.5024825,40.692008 70.0582707,40.2862586 70.6872029,40.2862586 L103,40.2862586 L103,32.9573123 C103,26.1917915 97.4641389,20.7053425 90.6321376,20.7053425 L71.0004892,20.7053425 C75.9674538,5.03819326 75.9674538,-1.44591792 71.0004892,1.25300892 C63.5500423,5.30139917 65.4648903,13 58.6341997,13 L51.4915337,13 L50.3647516,13 C43.5356341,13 44.5323127,5.30139917 37.9968892,1.25300892 L37.9968892,20.7050827 L18.3641921,20.7050827 C11.5384827,20.7050827 6,26.1915317 6,32.9570526 L6,40.442376 L35.7336249,40.442376 L43.4643254,19.0955927 Z" id="Path" fill="#ED1B2E"></path>
                            <path d="M68.8301614,53.4308681 C68.6304516,54.067556 68.0092201,54.4831716 67.3387848,54.429074 C66.6662444,54.3749763 66.1215814,53.8680708 66.0281731,53.2074552 L63.1346182,32.8167988 L59.3806537,48.4075883 C59.226201,49.0489577 58.6462797,49.5017655 57.9797911,49.5017655 C57.9782124,49.5017655 57.9763705,49.5017655 57.9745287,49.5017655 C57.305672,49.4991646 56.7265401,49.0421955 56.5762973,48.3977051 L54.0700583,37.6496965 L49.1370433,55.2251939 C48.9623301,55.8460165 48.3908287,56.2678742 47.7501261,56.2678742 C47.7056585,56.2678742 47.6609277,56.2657935 47.6159338,56.2621524 C46.9215543,56.1981715 46.3734708,55.6525133 46.3142683,54.9658892 L43.8927546,27 L38.0201302,43.1791015 C37.8148949,43.7450463 37.2726,44.1219093 36.6645246,44.1219093 L6,44.1219093 C7.02354537,49.8778483 12.1044351,54.2524763 18.2180795,54.2524763 L37.9225119,54.2524763 L37.9225119,73.7291943 C37.9225119,80.5062266 43.4814946,86 50.3355649,86 L51.4664641,86 L58.6352285,86 C65.4908775,86 71.0467028,80.5059665 71.0467028,73.7291943 L71.0467028,54.2524763 L90.7500827,54.2524763 C96.9247715,54.2524763 102.042235,49.7985224 103,43.9653382 L71.7937068,43.9653382 L68.8301614,53.4308681 Z" id="Path" fill="#ED1B2E"></path>
                            <path d="M108.557067,40.5699161 L103.517481,40.5699161 L71.0102044,40.5699161 C70.3774869,40.5699161 69.8180898,40.9839456 69.6310966,41.5908181 L68.2569999,46.0516355 L65.1917885,24.1033013 C65.0952588,23.4132521 64.5232021,22.8892915 63.8300877,22.8561797 C63.1377645,22.8265116 62.5182341,23.290871 62.3578789,23.969 L58.2506221,41.3012888 L55.8450299,30.8196924 C55.696543,30.1733507 55.1302886,29.7103157 54.4701419,29.6957465 C53.8070941,29.6790582 53.2236965,30.1185176 53.0469892,30.7577071 L48.7271563,46.3965277 L46.4202036,19.3264652 C46.362444,18.6472766 45.8415533,18.1000053 45.1684833,18.0123254 C44.4948858,17.9238507 43.8526736,18.3190728 43.6234817,18.9606464 L35.8467802,40.7293823 L5.93393498,40.7293823 L1.44372461,40.7293823 C0.646432048,40.7293823 0,41.3786379 0,42.1796778 C0,42.9801879 0.646168305,43.6294434 1.44372461,43.6294434 L6.12567554,43.6294434 L36.8619238,43.6294434 C37.4716956,43.6294434 38.0150045,43.2456118 38.2207234,42.6692022 L44.1071848,26.1909321 L46.5344039,54.6739399 C46.5940097,55.3732605 47.1433846,55.9290084 47.8391364,55.9941723 C47.8842363,55.9978808 47.9290725,56 47.9736449,56 C48.6161208,56 49.1887051,55.5703417 49.3638299,54.9380394 L54.308468,37.0372877 L56.8206121,47.9840383 C56.9712089,48.6407109 57.5517054,49.105865 58.222138,49.1085139 C58.2239842,49.1085139 58.2258304,49.1085139 58.2274128,49.1085139 C58.8954717,49.1085139 59.4767595,48.6475981 59.6315761,47.9941043 L63.3943856,32.1152896 L66.2947582,52.8829906 C66.3883867,53.5558217 66.9345967,54.0723653 67.6084579,54.1271984 C68.280473,54.1822964 68.9031682,53.7589955 69.1033485,53.1105347 L72.0738765,43.4694474 L103.353434,43.4694474 L108.556803,43.4694474 C109.353832,43.4694474 110,42.8204567 110,42.0196817 C110.000264,41.2189067 109.354359,40.5699161 108.557067,40.5699161 Z" id="Path" fill="#F7F1E6"></path>
                        </g>
                    </g>
                </g>
            </g>
        </g>
    </g>
</svg>