<?xml version="1.0" encoding="UTF-8"?>
<svg width="160px" height="190px" viewBox="0 0 160 190" version="1.1" xmlns="http://www.w3.org/2000/svg" xmlns:xlink="http://www.w3.org/1999/xlink">
    <!-- Generator: Sketch 52.1 (67048) - http://www.bohemiancoding.com/sketch -->
    <title>shield</title>
    <desc>Created with Sketch.</desc>
    <g id="Page-1" stroke="none" stroke-width="1" fill="none" fill-rule="evenodd">
        <g id="18.-Pru-Solutions---3" transform="translate(-304.000000, -263.000000)">
            <g id="items/faminy" transform="translate(304.000000, 263.000000)">
                <g id="shield">
                    <path d="M115.750415,173.449961 C150.957419,157.151523 168.328848,116.786914 156.060461,79.7858984 C150.433548,62.8154102 150.202028,44.5015625 155.39871,27.3922852 L158.99576,15.5495703 L143.547281,0 C122.364977,12.3106641 101.182304,12.3106641 80,0 C58.8176959,12.3106641 37.635023,12.3106641 16.4527189,0 L1.00460829,15.5499414 L4.60165899,27.3926563 C9.79834101,44.5015625 9.56682028,62.8157812 3.93990783,79.7862695 C-8.32884793,116.786914 9.04294931,157.151523 44.2499539,173.450332 L80,190 L115.750415,173.449961 Z" id="Shape" fill="#E94A58" fill-rule="nonzero"></path>
                    <path d="M80,190 L115.750415,173.449961 C150.957419,157.151523 168.328848,116.786914 156.060461,79.7858984 C150.433548,62.8154102 150.202028,44.5015625 155.39871,27.3922852 L158.99576,15.5495703 L143.547281,0 C122.364977,12.3106641 101.182304,12.3106641 80,0 C80,21.6974805 80,190 80,190 Z" id="Shape" fill="#DC1023" fill-rule="nonzero"></path>
                </g>
                <g id="family-group-of-three" transform="translate(39.815668, 34.882812)" fill="#FFFFFF">
                    <path d="M61.2210493,55.1649796 C60.4851684,56.3035756 60.0921659,57.6476602 60.0921659,59.0056389 C60.0921659,61.2618679 61.1944132,63.4196183 63.0134119,64.7366457 C64.8583202,66.0717111 67.2972119,66.4197983 69.4387487,65.6558591 C71.5207177,64.9128831 73.1711829,63.1719597 73.8082683,61.0427289 C74.4632725,58.8537774 74.0041642,56.4232611 72.5946339,54.6311484 C71.197211,52.8551237 68.9961063,51.8501073 66.7487519,51.961505 C64.5198005,52.0711963 62.4373472,53.2819449 61.2210493,55.1649796 Z" id="Shape" fill-rule="nonzero"></path>
                    <path d="M16.8116164,31.2668403 C18.4965995,32.1792185 20.3975056,32.65625 22.3104211,32.65625 C26.8560767,32.65625 31.0814018,29.8932165 32.9310844,25.7138879 C34.8047857,21.4802951 33.9565345,16.3937681 30.8238138,13.0020101 C27.6932989,9.61197864 22.7292772,8.38708807 18.3961133,9.94693663 C14.1352504,11.4806397 11.0770366,15.5003823 10.7255797,20.041061 C10.3709367,24.6236712 12.7887344,29.0878867 16.8116164,31.2668403 Z" id="Shape" fill-rule="nonzero"></path>
                    <path d="M36.7645461,21.0160675 C38.9566628,23.0056321 41.8444549,24.1210937 44.7968992,24.1210937 C49.2825901,24.1210937 53.4847321,21.517051 55.5071068,17.4899422 C57.55757,13.407791 57.0880556,8.36531991 54.3261775,4.73471148 C51.5739852,1.11652412 46.9166152,-0.656524067 42.4706356,0.22220641 C38.1072266,1.084619 34.4884061,4.43343941 33.2648597,8.73283773 C32.0163727,13.1228369 33.3958588,17.9580464 36.7645461,21.0160675 Z" id="Shape" fill-rule="nonzero"></path>
                    <path d="M75.9928436,85.7240732 C76.1104364,86.8291421 77.098753,87.6680213 78.1985633,87.6038702 C79.2849553,87.5407024 80.1612903,86.6101438 80.1703172,85.5146606 C80.1754405,84.8861772 80.1669016,84.2631012 80.1449444,83.6351093 C80.1115207,82.1650431 79.8163188,80.641149 79.3910816,79.2372002 C79.0246408,78.0269333 78.5530496,76.8496023 77.9536189,75.7371596 C76.4883437,73.0184834 74.3950935,70.655956 71.8809976,68.8784073 C71.2935213,68.4635149 70.6711575,68.0296966 69.9987802,67.7671936 C68.0904581,66.8258203 65.8017891,66.8147598 63.8841963,67.7364699 C63.3699105,67.9188456 62.8958796,68.2246076 62.4403903,68.5210296 C61.8734074,68.8897136 61.3300895,69.2945287 60.806045,69.7229396 C59.5871781,70.7191239 58.4820005,71.8617987 57.5266197,73.1163076 C55.8532394,75.3131729 54.6158308,77.890766 54.055923,80.6087048 C53.7209542,82.237551 53.6121442,83.8550908 53.6245866,85.5149064 C53.6326376,86.6261201 54.5338574,87.5603655 55.6343996,87.6063281 C56.7217674,87.6520449 57.6849553,86.8134116 57.8025481,85.7243189 C58.0489564,83.3829294 58.6030089,81.0781625 59.8772567,79.0700634 L59.8772567,81.3504972 L55.2147737,100.323224 C55.0054486,101.141457 54.8678504,101.987464 56.4521822,101.987464 L60.325183,101.987464 L61.0436704,117.828834 C61.1066143,119.125619 62.2020331,120.182268 63.4918948,120.181039 C64.7717539,120.179564 65.8579019,119.138646 65.9279208,117.851693 L66.7984007,101.987218 L67.059447,101.987218 L67.7776904,117.828589 C67.8406343,119.125373 68.9360531,120.182022 70.2259149,120.180793 C71.5057739,120.179072 72.5921659,119.1384 72.6626728,117.851447 L73.5324207,101.986972 L77.3214963,101.986972 C77.7359989,101.986972 78.1256167,101.802139 78.3898346,101.480155 C78.6542966,101.157433 78.7609108,100.737379 78.6796693,100.318554 L73.9427758,81.2750398 L73.9427758,79.1103729 C75.228978,81.0710346 75.7513147,83.4249594 75.9928436,85.7240732 Z" id="Shape" fill-rule="nonzero"></path>
                    <path d="M53.7963405,101.229204 L55.4045812,94.2151126 L55.623177,89.8629203 C53.6172676,89.3541363 52.1615072,87.5419313 52.1466251,85.4057759 C52.1295473,83.448801 52.2737327,81.5336102 52.7133641,79.6240726 C53.1529954,77.7145351 53.8597723,75.9047879 54.785145,74.1845082 C55.3335863,73.1654655 55.9859583,72.1968096 56.6944429,71.2851768 C56.7812957,70.4900482 56.7669016,69.6922159 56.7669016,68.8934005 C56.7669016,67.7733383 56.7669016,66.6530304 56.7669016,65.5327225 C56.7669016,62.307966 56.7669016,59.0829637 56.7669016,55.8582072 C56.7669016,53.5490161 56.7669016,51.2400708 56.7669016,48.9308797 C56.7669016,48.8099513 56.7669016,48.6892687 56.7669016,48.5683404 C57.7886419,50.7878183 58.5042017,53.1117568 59.0855787,55.4833784 C60.3429927,52.395035 63.0383573,50.8313231 66.7654649,50.2109507 C66.1499322,47.8007402 65.1750339,44.7976857 64.1437788,42.5302788 C62.8268365,39.6363548 61.2285985,36.8906417 59.2339116,34.4143139 C57.9316075,32.796774 56.4751152,31.3109773 54.8973706,29.9665095 C54.1274058,29.321804 53.326701,28.7105258 52.4898889,28.1562708 C51.7867715,27.6907457 51.0314448,27.2783112 50.2690431,26.913314 C42.3420168,23.1183261 36.04836,29.2834608 35.8924641,29.4225776 C34.2007861,30.9363943 32.5093521,32.450211 30.8176742,33.9645193 C35.2810789,37.1339732 38.9706153,41.3423788 41.55717,46.1829545 C43.2129845,49.2813753 44.3613445,52.6919486 44.9302792,56.1624944 C45.3172133,58.5218266 45.4257793,60.8796839 45.4062619,63.2692482 C45.3791813,66.5210415 42.6445378,69.233573 39.41537,69.205553 C38.9254812,69.2013745 38.4490106,69.1379609 37.9930333,69.0204736 C37.9930333,69.0204736 42.4405801,85.3649749 42.6925996,86.4088423 C43.0331797,87.8221312 43.1500407,90.7605431 39.9020873,90.7605431 C36.273055,90.7605431 34.5103822,90.7605431 34.5103822,90.7605431 L34.0978314,98.098093 L34.8402277,116.014172 C34.9397669,118.236353 36.8114936,120.052737 39.0216048,120.054457 C41.2222011,120.056423 43.0905123,118.26339 43.201518,116.050548 L44.7058281,86.0349967 L45.9490919,116.013926 C46.0486311,118.236107 47.9208458,120.052737 50.130469,120.054211 C52.3313093,120.055932 54.1993765,118.263144 54.3103822,116.050057 L54.9644619,103.012406 C53.2598536,102.876976 53.7963405,101.229204 53.7963405,101.229204 Z" id="Shape" fill-rule="nonzero"></path>
                    <path d="M39.2597911,89.362101 C39.8810664,89.362101 40.4647773,89.0858057 40.8606665,88.6040664 C41.2567997,88.1215916 41.4290103,87.5716979 41.2950958,86.8678437 L33.298524,57.7202877 L33.298524,53.1056421 C34.4566768,54.9024193 35.2755308,56.9759821 35.826312,59.0365514 C36.2556188,60.642349 36.4795414,62.2657982 36.6546791,63.9154795 C36.8466475,65.7137276 38.4536211,67.0824556 40.2481725,66.9892948 C42.0366258,66.8963792 43.4845607,65.3719747 43.4991962,63.572991 C43.5082214,62.4648681 43.499684,61.3650806 43.4455328,60.2581834 C43.3716237,58.7381918 43.1357489,57.2169743 42.8284042,55.7288535 C42.1866393,52.6258641 41.0438537,49.6165257 39.4722492,46.8682828 C37.8996689,44.1166076 35.9129051,41.6105826 33.6224555,39.4281688 C32.5218689,38.3793746 31.3471292,37.4055993 30.1126281,36.5200816 C29.1679091,35.8424595 28.1792838,35.1675342 27.1201643,34.6833433 C27.0257655,34.6401951 26.9301472,34.6021953 26.8333092,34.5651762 C23.7071748,33.027533 19.9585455,33.0084105 16.8180196,34.5156539 C15.7023096,34.9101162 14.6766077,35.6230413 13.7123748,36.2962505 C12.4912895,37.1484265 11.3331367,38.0895955 10.2374286,39.098919 C7.90307259,41.2487266 5.91264994,43.7358742 4.27786898,46.4573947 C3.4595028,47.8199937 2.75992778,49.2661922 2.17207011,50.743526 C1.59665258,52.1914406 1.09343665,53.7129032 0.78048172,55.2419658 C0.467526785,56.7685768 0.239213598,58.2856265 0.091151521,59.837489 C-0.0256882402,61.0618177 -0.000320108327,62.2964432 0.00870509244,63.5244493 C0.00919294113,63.5403847 0.00919294113,63.5570556 0.00919294113,63.5734813 C0.0226087801,65.3830069 1.4876184,66.9059404 3.2841212,66.9905206 C5.07208664,67.0748556 6.66149768,65.7026954 6.85395398,63.9152343 C7.02982344,62.265553 7.25374599,60.6421039 7.68232106,59.0367966 C8.24310313,56.9394533 9.08781314,54.8739807 10.252064,53.0394489 L10.252064,57.3694638 L2.23256335,86.8739727 C2.11255257,87.4888338 2.27110339,88.1181594 2.66626083,88.6016148 C3.06215004,89.0850702 3.64659277,89.3625913 4.26957555,89.3625913 L10.9445652,89.3625913 L12.1644309,116.389514 C12.267367,118.502057 14.0514296,120.227248 16.1582042,120.233867 C18.2615638,120.240241 20.0519685,118.537115 20.1673447,116.427759 L21.6435749,89.3630816 L21.9789708,89.3630816 L23.1983486,116.390004 C23.3012847,118.502547 25.0858352,120.227738 27.1921219,120.234357 C29.2954816,120.240731 31.0863741,118.537605 31.2017503,116.428249 L32.6779805,89.3635719 L39.2597911,89.3635719 L39.2597911,89.362101 Z" id="Shape" fill-rule="nonzero"></path>
                </g>
            </g>
        </g>
    </g>
</svg>