<?xml version="1.0" encoding="UTF-8"?>
<svg width="121px" height="401px" viewBox="0 0 121 401" version="1.1" xmlns="http://www.w3.org/2000/svg" xmlns:xlink="http://www.w3.org/1999/xlink">
    <!-- Generator: Sketch 51.1 (57501) - http://www.bohemiancoding.com/sketch -->
    <title>char/man/blouse</title>
    <desc>Created with Sketch.</desc>
    <defs>
        <polygon id="path-1" points="0.487213385 0.0475071143 36.7694185 0.0475071143 36.7694185 8.28625235 0.487213385 8.28625235"></polygon>
        <polygon id="path-3" points="0 0.539284369 29.9780791 0.539284369 29.9780791 107.920829 0 107.920829"></polygon>
        <polygon id="path-5" points="0.487489581 0.282485876 63.6098602 0.282485876 63.6098602 53.5340866 0.487489581 53.5340866"></polygon>
        <polygon id="path-7" points="0.433446328 0.455367232 28.4964218 0.455367232 28.4964218 107.920527 0.433446328 107.920527"></polygon>
    </defs>
    <g id="char/man/blouse" stroke="none" stroke-width="1" fill="none" fill-rule="evenodd">
        <g id="Group-108">
            <polygon id="Fill-1" fill="#68AEDE" points="47.8779661 185.79209 73.9314501 185.79209 73.9314501 121.150282 47.8779661 121.150282"></polygon>
            <polygon id="Fill-2" fill="#08364F" points="33.5309981 391.973484 47.4820339 391.846177 58.4229002 236.720753 65.1822222 236.659736 83.1377778 391.562938 96.8003013 391.438644 91.726855 216.558041 30.0477589 216.84806"></polygon>
            <g id="Group-107" transform="translate(0.000000, 0.470810)">
                <path d="M40.9352166,399.012053 C40.9352166,399.012053 41.3992467,397.201883 39.9792844,397.062524 C38.5585687,396.92467 35.726177,396.319774 35.6478343,398.846328 L14.4907721,398.179661 C14.4907721,398.179661 11.0256121,391.79322 13.9883239,391.511488 C16.9487759,391.231262 20.0350282,393.481356 22.8854991,393.478343 C25.7359699,393.47307 28.9706215,392.685122 30.4199623,391.933333 C31.8693032,391.179284 32.9442561,390.957062 33.5551789,390.976648 C34.1653484,390.994727 47.5016949,390.976648 47.5016949,390.976648 C47.5016949,390.976648 51.1785311,393.902448 47.2877589,397.808286 L47.2410546,399.213183 L40.9352166,399.012053 Z" id="Fill-3" fill="#100D14"></path>
                <g id="Group-7" transform="translate(81.355932, 390.960452)">
                    <mask id="mask-2" fill="white">
                        <use xlink:href="#path-1"></use>
                    </mask>
                    <g id="Clip-6"></g>
                    <path d="M8.62516008,8.08693032 C8.62516008,8.08693032 8.16037665,6.27525424 9.58259887,6.13589454 C11.0033145,5.99653484 13.8341996,5.39314501 13.914049,7.91969868 L35.0696045,7.25077213 C35.0696045,7.25077213 38.533258,0.865084746 35.5720527,0.584858757 C32.6116008,0.303126177 29.5261017,2.55623352 26.6756309,2.55096045 C23.8259134,2.54794727 20.5890019,1.76 19.139661,1.00670433 C17.6910734,0.252655367 16.6153672,0.030433145 16.0067043,0.0485122411 C15.3950282,0.0680979284 2.05868173,0.0485122411 2.05868173,0.0485122411 C2.05868173,0.0485122411 -1.61664783,2.97581921 2.27412429,6.88165725 L2.31932203,8.28655367 L8.62516008,8.08693032 Z" id="Fill-5" fill="#100D14" mask="url(#mask-2)"></path>
                </g>
                <path d="M89.845725,222.690094 C89.845725,222.690094 107.493183,204.828701 107.726704,189.811751 C107.961733,174.797815 95.6845198,147.709303 95.6845198,147.709303 L96.8001507,118.739058 C96.8001507,118.739058 119.174539,169.493861 117.765876,184.50855 C116.360226,199.524746 93.5466667,228.073145 93.5466667,228.073145 L89.845725,222.690094 Z" id="Fill-8" fill="#E8AF7F"></path>
                <path d="M29.799096,222.690094 C29.799096,222.690094 12.1523917,204.828701 11.9181168,189.811751 C11.6838418,174.797815 23.9603013,147.709303 23.9603013,147.709303 L22.846177,118.739058 C22.846177,118.739058 0.471789077,169.493861 1.87969868,184.50855 C3.28610169,199.524746 26.0989077,228.073145 26.0989077,228.073145 L29.799096,222.690094 Z" id="Fill-10" fill="#E8AF7F"></path>
                <path d="M23.599096,215.4742 L27.8845951,218.668927 C27.8845951,218.668927 28.2100188,224.186064 21.1501318,226.297552 L17.7422222,222.970245 L23.599096,215.4742 Z" id="Fill-12" fill="#68AEDE"></path>
                <g id="Group-16" transform="translate(0.000000, 116.760829)">
                    <mask id="mask-4" fill="white">
                        <use xlink:href="#path-3"></use>
                    </mask>
                    <g id="Clip-15"></g>
                    <path d="M21.0854237,0.539284369 C21.0854237,0.539284369 10.393145,22.0790207 1.81009416,53.4379661 C-6.7706968,84.7969115 17.9366478,107.920829 17.9366478,107.920829 C17.9366478,107.920829 24.82629,104.198041 26.1724294,98.2590584 C26.1724294,98.2590584 1.05755179,72.3720527 29.9780791,37.0967232 C29.9780791,37.0967232 27.6458757,29.3317514 26.6492655,20.7343879 C26.0699812,15.7505838 21.0854237,0.539284369 21.0854237,0.539284369" id="Fill-14" fill="#FFFFFF" mask="url(#mask-4)"></path>
                </g>
                <path d="M26.2246328,297.185461 C26.2246328,297.185461 36.0694539,172.354576 21.2106968,117.299962 C21.2106968,117.299962 29.4434652,114.106742 42.8287759,112.447985 C47.4268927,111.87774 59.086403,180.424633 59.086403,180.424633 C59.086403,180.424633 67.9233145,111.695443 73.1361205,112.281507 C80.5477966,113.115405 88.472467,114.661168 96.7135217,117.216347 C96.7135217,117.216347 93.7071186,281.521431 95.8095669,298.692053 L63.3251977,303.794124 C62.640452,303.799397 58.9779284,282.119548 58.9779284,282.119548 C58.9779284,282.119548 56.7978908,303.745913 56.4182298,303.729341 C47.9534463,303.34742 37.0984557,302.454011 26.2246328,297.185461" id="Fill-17" fill="#FFFFFF"></path>
                <polygon id="Fill-19" fill="#E69969" points="62.693258 121.131299 58.479322 123.874802 54.4356309 121.443917 49.4593597 119.834878 49.4593597 93.9049341 68.4642561 93.9049341 68.4642561 119.358795"></polygon>
                <path d="M92.58742,50.5068927 C91.9064407,49.4485122 89.1139736,50.319322 86.4721657,51.4635782 C84.5505085,52.2620716 83.1742373,52.8692279 82.2326177,53.4884369 C81.0845951,44.8639548 80.4744256,34.4526554 81.2209416,26.4323164 C81.2209416,26.4323164 71.8672693,16.7449341 57.8356309,24.4277966 C57.8356309,24.4277966 36.1211299,18.7487006 32.4458004,30.7750659 C32.4458004,30.7750659 32.8322411,42.3690395 32.4849718,52.8383427 C31.7783804,52.3057627 26.6280979,48.4745009 26.05258,49.6164972 C24.8337476,52.0315631 23.6563465,63.053032 27.3490019,67.6360829 C28.3968362,68.9370245 29.4695292,69.2458757 30.4683992,69.0236535 C29.2073823,76.2816573 38.9233898,88.7080226 43.6699058,94.7208286 C48.6815819,101.068098 56.8337476,100.598795 65.1855367,99.5954049 C73.5373258,98.5935217 88.2371375,74.2055744 85.5644444,68.5264783 C85.346742,68.0647081 85.1267797,67.4869303 84.9075706,66.8195104 C86.5271563,68.112919 88.7215066,68.9543503 90.6928814,66.6251601 C94.3923164,62.2575518 93.9584181,52.6379661 92.58742,50.5068927" id="Fill-21" fill="#E8AF7F"></path>
                <path d="M51.6652354,53.9975141 C51.6652354,53.9975141 50.033597,48.3832015 48.3612806,47.9508098 C46.6889642,47.5161582 41.827194,47.3052354 39.860339,49.74742 C37.8927307,52.1896045 36.9850094,54.2943126 36.9850094,54.2943126 C36.9850094,54.2943126 46.8170245,59.1229379 51.6652354,53.9975141" id="Fill-23" fill="#A56938"></path>
                <path d="M51.6652354,53.9975141 C51.6652354,53.9975141 50.033597,48.3832015 48.3612806,47.9508098 C46.6889642,47.5161582 41.827194,47.3052354 39.860339,49.7466667 C37.8927307,52.1896045 36.9850094,54.2943126 36.9850094,54.2943126 L37.8354802,54.3214313 L51.6652354,53.9975141 Z" id="Fill-25" fill="#221917"></path>
                <path d="M51.1797363,54.0680979 C51.1797363,54.0680979 49.6957439,49.2643315 48.1755932,48.89371 C46.6554426,48.5230885 42.2373635,48.3430508 40.4482863,50.432693 C38.659209,52.5215819 37.8351036,54.3212053 37.8351036,54.3212053 C37.8351036,54.3212053 46.7722034,58.4522787 51.1797363,54.0680979" id="Fill-27" fill="#EDE2D6"></path>
                <path d="M63.2133333,53.9121657 C63.2133333,53.9121657 64.8449718,48.2963465 66.5180414,47.8639548 C68.1888512,47.4300565 73.0506215,47.2191337 75.0182298,49.6613183 C76.985838,52.1035028 77.8935593,54.2082109 77.8935593,54.2082109 C77.8935593,54.2082109 68.0615443,59.0368362 63.2133333,53.9121657" id="Fill-29" fill="#A56938"></path>
                <path d="M63.2133333,53.9121657 C63.2133333,53.9121657 64.8449718,48.2963465 66.5180414,47.8639548 C68.1903578,47.4300565 73.0513748,47.2191337 75.0182298,49.660565 C76.985838,52.1035028 77.8935593,54.2082109 77.8935593,54.2082109 L77.0438418,54.2353296 L63.2133333,53.9121657 Z" id="Fill-31" fill="#221917"></path>
                <path d="M63.6988324,53.9820716 C63.6988324,53.9820716 65.1828249,49.1790584 66.7029755,48.8084369 C68.2231262,48.4370621 72.6412053,48.2562712 74.4302825,50.3459134 C76.2193597,52.4348023 77.0442185,54.2351789 77.0442185,54.2351789 C77.0442185,54.2351789 68.1056121,58.3654991 63.6988324,53.9820716" id="Fill-33" fill="#EDE2D6"></path>
                <path d="M55.1043315,70.5957815 C55.1065913,70.9121657 56.4956685,71.205951 58.2041431,71.2496422 C59.9148776,71.2955932 61.2979284,71.0756309 61.2964218,70.76 C61.2934087,70.4436158 59.905838,70.1498305 58.1958569,70.1053861 C56.4851224,70.059435 55.1013183,70.2786441 55.1043315,70.5957815" id="Fill-35" fill="#F0CCA2"></path>
                <path d="M42.7301695,52.326855 C42.9486252,53.9901318 44.4732957,55.1607533 46.1365725,54.9422976 C47.7998493,54.7245951 48.9712241,53.1984181 48.7527684,51.5358945 C48.5343126,49.873371 47.0096422,48.7019962 45.3463653,48.920452 C43.6838418,49.1389077 42.5109605,50.6635782 42.7301695,52.326855" id="Fill-37" fill="#322521"></path>
                <path d="M43.6232015,52.2098682 C43.7761205,53.3797363 44.8488136,54.2030885 46.0201883,54.0501695 C47.1893032,53.8957439 48.0134087,52.8230508 47.8597363,51.6531827 C47.706064,50.4825612 46.633371,49.6584557 45.4635028,49.8121281 C44.2936347,49.9658004 43.4687759,51.0392467 43.6232015,52.2098682" id="Fill-39" fill="#1B1413"></path>
                <path d="M46.4230508,51.8413559 C46.5119397,52.5245951 47.1379284,53.005951 47.8219209,52.9163089 C48.5051601,52.8266667 48.9857627,52.1999247 48.8961205,51.5166855 C48.8064783,50.8341996 48.1797363,50.3528437 47.4972505,50.4432392 C46.8147646,50.5328814 46.3334087,51.1596234 46.4230508,51.8413559" id="Fill-41" fill="#FEFEFE"></path>
                <path d="M44.8958945,52.9911111 C44.9177401,53.159096 45.0721657,53.2773635 45.2401507,53.2555179 C45.4096422,53.232919 45.5271563,53.0784934 45.5053107,52.9105085 C45.4827119,52.7425235 45.3290395,52.6235028 45.1610546,52.6453484 C44.9923164,52.667194 44.874049,52.8216196 44.8958945,52.9911111" id="Fill-43" fill="#FEFEFE"></path>
                <path d="M66.8341243,52.326855 C67.0533333,53.9901318 68.5787571,55.1607533 70.2412806,54.9422976 C71.9038041,54.7245951 73.0759322,53.1984181 72.8574765,51.5358945 C72.6390207,49.873371 71.1143503,48.7019962 69.4510734,48.920452 C67.7877966,49.1389077 66.6164218,50.6635782 66.8341243,52.326855" id="Fill-45" fill="#322521"></path>
                <path d="M67.7272316,52.2098682 C67.8816573,53.3797363 68.9543503,54.2030885 70.1242185,54.0501695 C71.2940866,53.8957439 72.1181921,52.8230508 71.9645198,51.6531827 C71.8116008,50.4825612 70.7381544,49.6584557 69.567533,49.8121281 C68.3984181,49.9658004 67.5743126,51.0392467 67.7272316,52.2098682" id="Fill-47" fill="#1B1413"></path>
                <path d="M70.527081,51.8413559 C70.6167232,52.5245951 71.2434652,53.005951 71.925951,52.9163089 C72.6099435,52.8266667 73.0897928,52.1999247 73.0001507,51.5166855 C72.9105085,50.8341996 72.2845198,50.3528437 71.6012806,50.4432392 C70.9187947,50.5328814 70.4374388,51.1596234 70.527081,51.8413559" id="Fill-49" fill="#FEFEFE"></path>
                <path d="M69.0013559,52.9911111 C69.0232015,53.159096 69.1768738,53.2773635 69.3456121,53.2555179 C69.513597,53.232919 69.6326177,53.0784934 69.6100188,52.9105085 C69.58742,52.7425235 69.4337476,52.6235028 69.2650094,52.6453484 C69.0970245,52.667194 68.9795104,52.8216196 69.0013559,52.9911111" id="Fill-51" fill="#FEFEFE"></path>
                <path d="M53.3792844,45.5964595 C53.7762712,45.7222599 54.2817326,39.8186817 51.100565,38.8062524 L52.2403013,42.2006026 C52.2403013,42.2006026 51.3830508,39.1753672 50.2410546,38.5094539 C49.5570621,38.1102072 46.4256121,37.1776271 42.7141243,38.0288512 C38.5612053,38.9810169 37.1419962,40.1764972 36.6056497,41.5143503 C36.0693032,42.8506968 35.6105461,45.9821469 35.6105461,45.9821469 C35.6105461,45.9821469 43.6421846,42.4921281 53.3792844,45.5964595" id="Fill-53" fill="#322521"></path>
                <path d="M61.4543879,44.779887 C61.0310358,44.8544633 61.5063653,39.0465537 64.8901695,38.4484369 L63.1719021,41.6137853 C63.1719021,41.6137853 64.5436535,38.772354 65.8069303,38.2638795 C66.5647458,37.9580414 69.8822599,37.4322411 73.4905461,38.7120904 C77.5251977,40.1448588 78.7583427,41.4819586 79.0769868,42.8491902 C79.3941243,44.2156685 79.3361205,47.3177401 79.3361205,47.3177401 C79.3361205,47.3177401 71.8069303,42.9441055 61.4543879,44.779887" id="Fill-55" fill="#322521"></path>
                <path d="M62.1783051,92.9143503 C60.0811299,92.7222599 52.8020339,92.2499435 53.8445951,94.0420339 C54.9150282,95.8861017 57.4152166,97.8024859 59.9041055,96.8616196 C62.3937476,95.9230132 64.5429002,93.1305461 62.1783051,92.9143503" id="Fill-57" fill="#D68960"></path>
                <path d="M65.1495292,73.9068927 C64.1770245,74.3377778 63.1457627,74.6217702 62.1024482,74.8176271 C60.0135593,75.2018079 57.8651601,75.2251601 55.7725047,74.9464407 C53.7619586,74.6496422 51.4372881,74.1163089 50.2704331,72.6737476 C49.8478343,72.073371 50.0775895,70.8319397 50.7088512,70.4454991 C51.4011299,69.9438041 52.4655367,69.7592467 53.4689266,69.6507721 C54.2357815,69.5671563 54.3284369,69.2048211 54.3239171,68.8454991 L53.1676083,47.3178154 L53.0629002,68.4537853 C52.0474576,68.6496422 50.9928437,68.8560452 50.0338983,69.612354 C49.0094162,70.5517137 48.7826742,72.0281733 49.5412429,73.1905085 C51.2647834,75.039096 53.5894539,75.2598117 55.7084746,75.5279849 C57.8719397,75.7080226 60.0557439,75.5859887 62.1612053,75.100113 C63.2120527,74.8545386 64.2463277,74.5185687 65.2120527,74.0364595 C66.1084746,73.5392844 67.2195857,72.8922034 67.3077213,71.7584934 C67.1698682,72.8786441 66.0527307,73.4549153 65.1495292,73.9068927" id="Fill-59" fill="#A86143"></path>
                <g id="Group-63" transform="translate(25.612053, 0.000000)">
                    <mask id="mask-6" fill="white">
                        <use xlink:href="#path-5"></use>
                    </mask>
                    <g id="Clip-62"></g>
                    <path d="M62.5512618,11.8165725 C61.4710358,9.32617702 55.3241431,6.17514124 47.1350659,4.40715631 L47.2631262,4.41393597 C47.2631262,4.41393597 49.4469303,3.19284369 52.4375141,3.4354049 C52.4375141,3.4354049 47.2691525,2.29491525 44.286855,3.54312618 C42.6823352,2.49679849 39.8491902,0.90960452 36.6341243,0.282109228 C36.6341243,0.282109228 40.4216949,2.68964218 40.4096422,3.34877589 C38.5384557,3.15969868 36.6137853,3.04971751 34.6604896,3.04293785 C18.8134087,2.98644068 1.42131827,8.52316384 0.728286252,13.2779661 C-0.425762712,21.1875706 2.90229755,45.3193974 3.66237288,50.6248588 C5.15917137,51.4934087 6.5279096,52.5600753 6.87367232,52.8350282 C6.88647834,52.4048964 6.90003766,51.973258 6.9120904,51.540113 L6.95804143,52.9028249 C6.95804143,52.9028249 7.98177024,36.2097928 7.98177024,35.4783427 C7.98177024,34.7551789 7.29024482,29.7050847 7.2766855,29.606403 C7.27743879,29.6048964 7.27894539,29.6018832 7.27969868,29.5996234 C11.672919,31.8045198 23.7813936,29.7239171 27.1418456,28.0839925 C27.1418456,28.0839925 22.0917514,30.5171375 19.400226,31.1340866 C24.0036158,30.6195857 40.4036158,28.4297552 47.5380791,22.6813559 C47.5380791,22.6813559 41.6796987,28.3265537 35.6842185,30.0244821 C35.6842185,30.0244821 49.3580414,30.7062147 55.4951412,27.8436911 C55.3610546,29.7096045 55.2962712,31.6854991 55.285725,33.7201507 C55.1832768,34.4704331 55.160678,35.1047081 55.2887382,35.4783427 C55.2887382,35.4813559 55.2902448,35.4858757 55.2909981,35.4881356 C55.3520151,41.2749529 55.8378908,47.4278719 56.546742,52.9148776 C56.546742,52.93371 56.5482486,52.9502825 56.5482486,52.9502825 L56.5482486,52.93371 C56.5746139,53.1340866 56.5994727,53.3367232 56.625838,53.5340866 C57.6036158,53.0082863 59.2013559,52.1819209 60.860113,51.4632768 C62.1934463,41.9491525 65.2051224,17.9280603 62.5512618,11.8165725" id="Fill-61" fill="#322521" mask="url(#mask-6)"></path>
                </g>
                <path d="M45.0121281,31.1337853 C44.2309605,31.2204143 43.7872693,31.260339 43.7872693,31.260339 C44.0780414,31.3025235 44.5029002,31.2497928 45.0121281,31.1337853" id="Fill-64" fill="#322521"></path>
                <path d="M45.4137853,79.2718644 C45.4137853,79.2718644 60.0119021,83.1724294 72.0435405,78.7573635 L65.9041808,89.8699812 C65.9041808,89.8699812 61.0476836,91.8473823 51.6458004,89.7245951 L45.4137853,79.2718644 Z" id="Fill-66" fill="#5A100D"></path>
                <path d="M51.1429755,88.8815819 L51.646177,89.7245198 C61.047307,91.8480603 65.9045574,89.8699058 65.9045574,89.8699058 L67.2446704,87.4450471 C60.8371375,86.0717891 55.0819586,87.3810169 51.1429755,88.8815819" id="Fill-68" fill="#8C1B1B"></path>
                <path d="M50.5956309,83.7203013 C53.5515631,84.3621092 65.227646,84.6543879 68.4743503,83.7203013 C68.9210546,83.5922411 69.339887,83.3105085 69.7338606,82.9376271 L72.0434652,78.7575895 C60.0118267,83.1719021 45.41371,79.2713371 45.41371,79.2713371 C45.41371,79.2713371 47.6381921,83.08 50.5956309,83.7203013" id="Fill-70" fill="#FCFCFD"></path>
                <path d="M71.2678719,80.1612806 L72.0430132,78.7578908 C60.0121281,83.1722034 45.4140113,79.2708851 45.4140113,79.2708851 C45.4140113,79.2708851 45.7740866,79.8848211 46.3925424,80.6584557 C49.7243691,81.4034652 61.2294539,83.5262524 71.2678719,80.1612806" id="Fill-72" fill="#DFD5BF"></path>
                <path d="M23.9603013,225.274426 L26.040904,228.072919 C26.040904,228.072919 28.2442938,233.646554 30.52,235.491375 C30.52,235.491375 36.1719774,227.810772 34.6352542,222.017928 L30.9621846,221.636761 L27.979887,222.105311 L23.9603013,225.274426 Z" id="Fill-74" fill="#E8AF7F"></path>
                <path d="M96.046403,215.4742 L91.760904,218.668927 C91.760904,218.668927 91.4362335,224.186064 98.4953672,226.297552 L101.903277,222.970245 L96.046403,215.4742 Z" id="Fill-76" fill="#68AEDE"></path>
                <path d="M95.6845198,225.274426 L93.6046704,228.072919 C93.6046704,228.072919 91.4005273,233.646554 89.1263277,235.491375 C89.1263277,235.491375 83.4743503,227.810772 85.0103202,222.017928 L88.6833898,221.636761 L91.6656874,222.105311 L95.6845198,225.274426 Z" id="Fill-78" fill="#E8AF7F"></path>
                <g id="Group-82" transform="translate(91.148776, 116.760829)">
                    <mask id="mask-8" fill="white">
                        <use xlink:href="#path-7"></use>
                    </mask>
                    <g id="Clip-81"></g>
                    <path d="M5.43984934,0.455367232 C5.43984934,0.455367232 18.1042561,22.0787194 26.6858004,53.4376648 C35.2673446,84.7966102 10.5607533,107.920527 10.5607533,107.920527 C10.5607533,107.920527 3.67035782,104.198493 2.32421846,98.2587571 C2.32421846,98.2587571 29.352467,74.1329567 0.433446328,38.8576271 C0.433446328,38.8576271 0.850772128,29.3314501 1.84813559,20.7340866 C2.42741996,15.7510358 5.43984934,0.455367232 5.43984934,0.455367232" id="Fill-80" fill="#FFFFFF" mask="url(#mask-8)"></path>
                </g>
                <path d="M71.6555179,141.271638 L76.9361205,136.183879 L79.2321657,114.931902 C77.1297175,114.591412 75.0581544,114.303653 73.0280226,114.074652 C67.8144633,113.487834 58.9783051,182.217778 58.9783051,182.217778 L76.9361205,144.176347 L71.6555179,141.271638 Z" id="Fill-83" fill="#F3F3F4"></path>
                <path d="M58.9782298,182.218154 C58.9782298,182.218154 47.3187194,113.671262 42.7198493,114.240753 C41.4791714,114.394426 40.2821846,114.562411 39.1311488,114.738682 L37.7270056,138.150358 L44.9036535,141.272015 L39.1326554,146.059962 L58.9782298,182.218154 Z" id="Fill-85" fill="#F3F3F4"></path>
                <path d="M58.4794727,123.875932 L54.6873823,121.161055 L48.4666667,128.12904 C48.4666667,128.12904 43.6757062,123.696648 39.2410546,112.926026 L49.4587571,109.064633 L58.4794727,123.875932 Z" id="Fill-87" fill="#84C4E8"></path>
                <path d="M58.4794727,123.875932 L62.2715631,121.161055 L68.4907721,128.12904 C68.4907721,128.12904 73.2832392,123.696648 77.7178908,112.926026 L68.4644068,109.428475 L58.4794727,123.875932 Z" id="Fill-89" fill="#84C4E8"></path>
                <polygon id="Fill-91" fill="#F3F3F4" points="34.9000377 217.838569 30.500791 239.174162 32.7004143 240.437439 37.7271563 217.838569"></polygon>
                <polygon id="Fill-93" fill="#F3F3F4" points="85.4664407 217.838569 89.8649341 239.174162 87.666064 240.437439 82.639322 217.838569"></polygon>
                <path d="M60.0589077,187.14177 C60.0589077,186.136121 59.2438418,185.321055 58.2381921,185.321055 C57.2325424,185.321055 56.4182298,186.136121 56.4182298,187.14177 C56.4182298,188.146667 57.2325424,188.961733 58.2381921,188.961733 C59.2438418,188.961733 60.0589077,188.146667 60.0589077,187.14177" id="Fill-95" fill="#F3F3F4"></path>
                <path d="M61.0144633,131.460414 C61.0144633,130.454765 60.1993974,129.639699 59.1937476,129.639699 C58.1880979,129.639699 57.373032,130.454765 57.373032,131.460414 C57.373032,132.466064 58.1880979,133.28113 59.1937476,133.28113 C60.1993974,133.28113 61.0144633,132.466064 61.0144633,131.460414" id="Fill-97" fill="#4D96C0"></path>
                <path d="M61.0144633,153 C61.0144633,151.995104 60.1993974,151.180038 59.1937476,151.180038 C58.1880979,151.180038 57.373032,151.995104 57.373032,153 C57.373032,154.00565 58.1880979,154.820716 59.1937476,154.820716 C60.1993974,154.820716 61.0144633,154.00565 61.0144633,153" id="Fill-99" fill="#4D96C0"></path>
                <path d="M60.0589077,212.313898 C60.0589077,211.309002 59.2438418,210.493936 58.2381921,210.493936 C57.2325424,210.493936 56.4182298,211.309002 56.4182298,212.313898 C56.4182298,213.319548 57.2325424,214.134614 58.2381921,214.134614 C59.2438418,214.134614 60.0589077,213.319548 60.0589077,212.313898" id="Fill-101" fill="#F3F3F4"></path>
                <path d="M60.0589077,237.48678 C60.0589077,236.48113 59.2438418,235.666064 58.2381921,235.666064 C57.2325424,235.666064 56.4182298,236.48113 56.4182298,237.48678 C56.4182298,238.492429 57.2325424,239.307495 58.2381921,239.307495 C59.2438418,239.307495 60.0589077,238.492429 60.0589077,237.48678" id="Fill-103" fill="#F3F3F4"></path>
                <path d="M60.0589077,262.659661 C60.0589077,261.654011 59.2438418,260.838945 58.2381921,260.838945 C57.2325424,260.838945 56.4182298,261.654011 56.4182298,262.659661 C56.4182298,263.664557 57.2325424,264.479623 58.2381921,264.479623 C59.2438418,264.479623 60.0589077,263.664557 60.0589077,262.659661" id="Fill-105" fill="#F3F3F4"></path>
            </g>
        </g>
    </g>
</svg>