<?xml version="1.0" encoding="UTF-8"?>
<svg width="333px" height="737px" viewBox="0 0 333 737" version="1.1" xmlns="http://www.w3.org/2000/svg" xmlns:xlink="http://www.w3.org/1999/xlink">
    <!-- Generator: Sketch 51.1 (57501) - http://www.bohemiancoding.com/sketch -->
    <title>char/man/jumping</title>
    <desc>Created with Sketch.</desc>
    <defs>
        <polygon id="path-1" points="0.795469918 0.753386716 19.562 0.753386716 19.562 29.3271083 0.795469918 29.3271083"></polygon>
        <polygon id="path-3" points="0.900508313 0.052 116.835054 0.052 116.835054 97.8573 0.900508313 97.8573"></polygon>
    </defs>
    <g id="char/man/jumping" stroke="none" stroke-width="1" fill="none" fill-rule="evenodd">
        <g id="jumping-guy">
            <g id="hand" transform="translate(0.000000, 25.000000)" fill="#E8AF7F">
                <path d="M43.6588,65.2405 C43.6588,65.2405 42.1928,42.4225 42.1928,37.8375 C42.1928,31.5895 37.4118,34.1965 33.1168,34.4385 C26.0618,34.8195 9.7108,37.5915 11.5008,43.6755 C14.6498,54.2385 16.0618,57.7445 17.2068,62.8465 C18.2918,67.7635 21.2748,76.6185 24.8648,77.8935 C28.0658,79.0325 32.3078,79.4715 37.0328,76.6705 C42.1348,73.6295 43.6588,65.2405 43.6588,65.2405" id="Fill-1"></path>
                <path d="M46.7554,65.2087 C51.6414,58.3127 54.1984,55.1617 59.2494,50.4337 C64.2394,45.6847 67.8294,40.7917 62.8294,40.7397 C57.7784,40.6597 55.3344,44.4057 52.6234,46.6867 C49.9044,48.9957 47.8934,50.6537 38.8214,53.3417 C29.8044,56.0317 21.3884,67.3037 27.4704,73.1127 C36.2734,81.5327 41.8664,72.1087 46.7554,65.2087" id="Fill-3"></path>
                <path d="M25.9996,40.74 C24.5366,37.019 18.8326,13.257 16.2246,8.503 C13.6776,3.778 11.5536,6.247 11.5006,9.289 C11.4466,12.357 15.4686,26.943 17.8606,39.165 C18.8326,44.163 21.0086,48.266 23.8316,47.202 C26.6526,46.17 27.0936,43.481 25.9996,40.74" id="Fill-5"></path>
                <path d="M34.5875,36.8855 C33.7725,33.0005 31.9805,8.5845 30.2415,3.5015 C28.4525,-1.5745 25.9495,0.5175 25.4585,3.5335 C24.9175,6.5185 26.4905,21.5905 26.8175,34.0025 C26.9825,39.1105 28.4525,43.5105 31.3795,42.9125 C34.3725,42.3715 35.2415,39.7895 34.5875,36.8855" id="Fill-7"></path>
                <path d="M15.1929,38.4304 C12.8609,35.2804 8.5659,26.3724 4.8239,22.4904 C1.0709,18.6334 -0.9931,21.0214 0.4759,23.6564 C2.6459,27.4334 7.5349,36.8294 10.1409,41.2304 C12.6959,45.6574 14.4879,49.8664 17.3709,47.9084 C19.8649,46.2264 16.9899,40.7924 15.1929,38.4304" id="Fill-9"></path>
                <path d="M43.4937,31.7224 C44.7417,27.1314 47.5727,15.6994 47.4087,9.2324 C47.2967,2.7714 43.5467,3.1494 42.7367,6.7374 C41.5427,11.7894 38.0657,24.0384 36.7027,30.0144 C35.3477,35.9874 33.5037,41.1484 37.5757,41.7984 C41.1617,42.3714 41.7047,38.4034 43.4937,31.7224" id="Fill-12"></path>
            </g>
            <path d="M46.3531,189.7166 C51.7201,157.8636 40.3571,123.1566 39.4361,99.7856 L21.4511,95.6356 C19.3191,139.8496 15.3531,188.3456 17.3001,197.3256 C19.3001,206.5966 43.1101,208.8466 46.3531,189.7166" id="Fill-14" fill="#E8AF7F"></path>
            <path d="M46.3531,188.7937 C51.7201,156.9407 47.2741,157.7457 46.3531,134.3747 L14.5331,140.6007 C12.4021,184.8147 15.3531,187.4227 17.3001,196.4037 C19.3001,205.6737 43.1101,207.9237 46.3531,188.7937" id="Fill-16" fill="#68AEDE"></path>
            <path d="M103.7711,259.5857 C59.4131,239.4277 21.1891,205.4357 17.9921,202.8597 C14.8281,200.3387 18.0431,180.3817 31.1341,177.2647 C34.8251,176.4097 74.5971,204.3697 80.8931,207.0807 C126.7301,226.8147 105.8491,260.5297 103.7711,259.5857" id="Fill-18" fill="#68AEDE"></path>
            <path d="M287.9,82.5002 C287.9,82.5002 289.396,59.1572 289.396,54.4682 C289.396,48.0762 294.293,50.7432 298.684,50.9912 C305.901,51.3802 322.627,54.2162 320.795,60.4392 C317.575,71.2472 316.131,74.8322 314.96,80.0522 C313.847,85.0822 310.797,94.1412 307.123,95.4442 C303.851,96.6092 299.511,97.0582 294.679,94.1942 C289.462,91.0832 287.9,82.5002 287.9,82.5002" id="Fill-20" fill="#E8AF7F"></path>
            <path d="M284.731,82.4675 C279.734,75.4125 277.117,72.1905 271.951,67.3545 C266.845,62.4945 263.172,57.4895 268.288,57.4375 C273.456,57.3555 275.956,61.1875 278.728,63.5205 C281.509,65.8835 283.57,67.5785 292.847,70.3285 C302.075,73.0815 310.68,84.6125 304.458,90.5545 C295.455,99.1675 289.73,89.5285 284.731,82.4675" id="Fill-22" fill="#E8AF7F"></path>
            <path d="M305.9654,57.4373 C307.4624,53.6313 313.2964,29.3233 315.9654,24.4583 C318.5704,19.6253 320.7404,22.1523 320.7944,25.2633 C320.8514,28.4023 316.7374,43.3233 314.2894,55.8263 C313.2964,60.9383 311.0694,65.1363 308.1834,64.0483 C305.2944,62.9923 304.8454,60.2413 305.9654,57.4373" id="Fill-24" fill="#E8AF7F"></path>
            <path d="M297.1802,53.4934 C298.0132,49.5194 299.8462,24.5424 301.6262,19.3434 C303.4522,14.1504 306.0172,16.2894 306.5192,19.3754 C307.0732,22.4294 305.4602,37.8474 305.1282,50.5454 C304.9602,55.7704 303.4522,60.2714 300.4602,59.6604 C297.4002,59.1074 296.5092,56.4654 297.1802,53.4934" id="Fill-26" fill="#E8AF7F"></path>
            <g id="Group-30" transform="translate(313.000000, 35.948000)">
                <mask id="mask-2" fill="white">
                    <use xlink:href="#path-1"></use>
                </mask>
                <g id="Clip-29"></g>
                <path d="M4.0191,19.1265 C6.4051,15.9035 10.7991,6.7925 14.6261,2.8195 C18.4651,-1.1245 20.5801,1.3185 19.0731,4.0125 C16.8551,7.8765 11.8561,17.4895 9.1871,21.9915 C6.5731,26.5195 4.7421,30.8255 1.7921,28.8225 C-0.7609,27.1025 2.1831,21.5425 4.0191,19.1265" id="Fill-28" fill="#E8AF7F" mask="url(#mask-2)"></path>
            </g>
            <path d="M288.067,48.2126 C286.793,43.5166 283.894,31.8216 284.062,25.2056 C284.178,18.5966 288.016,18.9826 288.843,22.6526 C290.067,27.8206 293.625,40.3516 295.013,46.4646 C296.405,52.5746 298.287,57.8556 294.121,58.5206 C290.457,59.1076 289.898,55.0466 288.067,48.2126" id="Fill-31" fill="#E8AF7F"></path>
            <path d="M290.3882,189.1682 C283.8502,150.3522 291.2382,110.5512 291.9342,92.8682 L309.9202,92.8682 C312.0512,137.0832 316.7092,182.8112 314.7622,191.7922 C312.7602,201.0632 293.6322,208.2972 290.3882,189.1682" id="Fill-33" fill="#E8AF7F"></path>
            <path d="M289.4654,183.6335 C282.9274,144.8185 284.3194,148.5985 285.0174,130.9155 L314.7624,132.2995 C316.8934,176.5135 315.7864,177.2775 313.8404,186.2575 C311.8374,195.5285 292.7094,202.7635 289.4654,183.6335" id="Fill-35" fill="#68AEDE"></path>
            <path d="M228.982,255.4343 C273.341,235.2763 310.873,197.8263 314.071,195.2503 C317.235,192.7293 312.898,177.9813 299.807,174.8643 C296.117,174.0093 256.724,201.5323 250.427,204.2433 C204.591,223.9763 226.904,256.3783 228.982,255.4343" id="Fill-37" fill="#68AEDE"></path>
            <path d="M153.0269,576.6345 L162.9649,435.7045 L175.3369,435.5935 L191.3489,573.7525 C191.3489,573.7525 218.7889,589.1195 228.9349,571.8695 C228.9349,571.8695 240.0499,431.8375 217.9149,387.5645 C205.8939,363.5225 120.3249,374.1125 111.0389,399.3355 C97.5449,435.9885 114.5449,575.6575 114.5449,575.6575 C121.6019,589.4715 153.0269,576.6345 153.0269,576.6345" id="Fill-39" fill="#08364F"></path>
            <path d="M228.4683,571.4041 C221.2443,555.0891 195.6323,557.1931 190.8823,573.2861 L207.7263,718.6081 L232.7323,718.3801 L228.4683,571.4041 Z" id="Fill-41" fill="#08364F"></path>
            <path d="M114.0757,575.1892 C113.7397,576.4602 116.9427,719.3562 116.9427,719.3562 L142.4757,719.1242 L152.9447,574.2672 C148.9687,560.0002 121.2517,548.0712 114.0757,575.1892" id="Fill-43" fill="#08364F"></path>
            <path d="M220.7828,734.5564 C220.7828,734.5564 219.8848,729.7804 222.4818,729.4534 C225.0818,729.1244 230.2518,727.6074 230.4628,734.2544 L269.1798,733.0334 C269.1798,733.0334 275.3588,716.3274 269.9288,715.5104 C264.4998,714.6984 258.9098,720.5414 253.6888,720.4594 C248.4688,720.3774 242.5268,718.2234 239.8548,716.2034 C237.1828,714.1854 235.2098,713.5774 234.0928,713.6084 C232.9748,713.6484 208.5568,713.2574 208.5568,713.2574 C208.5568,713.2574 201.9018,720.8624 209.1238,731.2304 L209.2418,734.9204 L220.7828,734.5564 Z" id="Fill-45" fill="#100D14"></path>
            <path d="M134.7261,736.5838 C134.7261,736.5838 135.6241,731.8068 133.0271,731.4798 C130.4271,731.1518 125.2591,729.6348 125.0471,736.2798 L86.3301,735.0598 C86.3301,735.0598 80.1491,718.3548 85.5801,717.5368 C91.0091,716.7248 96.5991,722.5678 101.8211,722.4868 C107.0401,722.4038 112.9821,720.2498 115.6541,718.2308 C118.3271,716.2128 120.3001,715.6038 121.4171,715.6358 C122.5351,715.6748 146.9531,715.2838 146.9531,715.2838 C146.9531,715.2838 153.6071,722.8888 146.3861,733.2568 L146.2681,736.9478 L134.7261,736.5838 Z" id="Fill-47" fill="#100D14"></path>
            <polygon id="Fill-49" fill="#E69969" points="170.7798 225.0295 163.0698 230.0505 155.6698 225.5995 146.5618 222.6565 146.5618 175.2025 181.3438 175.2025 181.3438 221.7875"></polygon>
            <path d="M228.0172,93.2454 C226.7652,91.3004 221.6362,92.9004 216.7852,95.0014 C213.2552,96.4694 210.7272,97.5834 208.9972,98.7214 C206.8902,82.8804 205.7692,63.7594 207.1402,49.0284 C207.1402,49.0284 189.9602,31.2354 164.1892,45.3464 C164.1892,45.3464 124.3072,34.9154 117.5562,57.0034 C117.5562,57.0034 118.2662,78.2994 117.6282,97.5264 C116.3312,96.5484 106.8722,89.5124 105.8142,91.6104 C103.5762,96.0454 101.4132,116.2884 108.1962,124.7054 C110.1212,127.0954 112.0902,127.6624 113.9242,127.2544 C111.6092,140.5844 129.4532,163.4074 138.1712,174.4524 C147.3752,186.1094 162.3492,185.2464 177.6892,183.4044 C193.0272,181.5634 220.0272,136.7714 215.1182,126.3414 C214.7172,125.4924 214.3132,124.4314 213.9112,123.2064 C216.8862,125.5814 220.9152,127.1274 224.5382,122.8494 C231.3302,114.8264 230.5352,97.1594 228.0172,93.2454" id="Fill-51" fill="#E8AF7F"></path>
            <path d="M152.857,99.656 C152.857,99.656 149.859,89.344 146.789,88.55 C143.715,87.753 134.788,87.365 131.174,91.85 C127.56,96.335 125.894,100.2 125.894,100.2 C125.894,100.2 143.952,109.069 152.857,99.656" id="Fill-53" fill="#A56938"></path>
            <path d="M152.857,99.656 C152.857,99.656 149.859,89.344 146.789,88.55 C143.715,87.753 134.788,87.365 131.174,91.849 C127.56,96.335 125.894,100.2 125.894,100.2 L127.456,100.251 L152.857,99.656 Z" id="Fill-55" fill="#221917"></path>
            <path d="M151.9644,99.7859 C151.9644,99.7859 149.2384,90.9629 146.4464,90.2819 C143.6544,89.6009 135.5404,89.2709 132.2534,93.1089 C128.9684,96.9459 127.4554,100.2509 127.4554,100.2509 C127.4554,100.2509 143.8694,107.8389 151.9644,99.7859" id="Fill-57" fill="#EDE2D6"></path>
            <path d="M174.066,99.4993 C174.066,99.4993 177.062,89.1853 180.135,88.3903 C183.205,87.5933 192.133,87.2073 195.748,91.6923 C199.362,96.1773 201.029,100.0423 201.029,100.0423 C201.029,100.0423 182.97,108.9113 174.066,99.4993" id="Fill-59" fill="#A56938"></path>
            <path d="M174.066,99.4993 C174.066,99.4993 177.062,89.1853 180.135,88.3903 C183.209,87.5933 192.134,87.2073 195.748,91.6913 C199.362,96.1773 201.029,100.0423 201.029,100.0423 L199.468,100.0923 L174.066,99.4993 Z" id="Fill-61" fill="#221917"></path>
            <path d="M174.9576,99.6277 C174.9576,99.6277 177.6836,90.8067 180.4766,90.1257 C183.2676,89.4427 191.3826,89.1117 194.6676,92.9487 C197.9536,96.7867 199.4686,100.0927 199.4686,100.0927 C199.4686,100.0927 183.0506,107.6787 174.9576,99.6277" id="Fill-63" fill="#EDE2D6"></path>
            <path d="M159.1734,130.1414 C159.1774,130.7224 161.7284,131.2614 164.8654,131.3424 C168.0074,131.4264 170.5474,131.0224 170.5444,130.4434 C170.5394,129.8614 167.9914,129.3234 164.8514,129.2404 C161.7084,129.1564 159.1674,129.5594 159.1734,130.1414" id="Fill-65" fill="#F0CCA2"></path>
            <path d="M136.4449,96.5876 C136.8459,99.6426 139.6479,101.7926 142.7029,101.3916 C145.7579,100.9906 147.9079,98.1886 147.5079,95.1346 C147.1049,92.0816 144.3049,89.9306 141.2509,90.3306 C138.1959,90.7326 136.0429,93.5326 136.4449,96.5876" id="Fill-67" fill="#322521"></path>
            <path d="M138.0855,96.3728 C138.3665,98.5208 140.3375,100.0348 142.4875,99.7538 C144.6365,99.4698 146.1495,97.4998 145.8665,95.3508 C145.5835,93.2008 143.6145,91.6868 141.4665,91.9698 C139.3155,92.2518 137.8025,94.2238 138.0855,96.3728" id="Fill-69" fill="#1B1413"></path>
            <path d="M143.2281,95.696 C143.3911,96.951 144.5411,97.835 145.7981,97.67 C147.0521,97.505 147.9351,96.354 147.7711,95.1 C147.6051,93.846 146.4551,92.963 145.2011,93.128 C143.9471,93.292 143.0631,94.444 143.2281,95.696" id="Fill-71" fill="#FEFEFE"></path>
            <path d="M140.4234,97.8079 C140.4634,98.1159 140.7474,98.3329 141.0564,98.2929 C141.3664,98.2519 141.5824,97.9689 141.5424,97.6589 C141.5014,97.3509 141.2184,97.1319 140.9094,97.1729 C140.6004,97.2129 140.3824,97.4969 140.4234,97.8079" id="Fill-73" fill="#FEFEFE"></path>
            <path d="M180.7164,96.5876 C181.1184,99.6426 183.9214,101.7926 186.9744,101.3916 C190.0284,100.9906 192.1804,98.1886 191.7794,95.1346 C191.3774,92.0816 188.5764,89.9306 185.5234,90.3306 C182.4674,90.7326 180.3164,93.5326 180.7164,96.5876" id="Fill-75" fill="#322521"></path>
            <path d="M182.356,96.3728 C182.64,98.5208 184.61,100.0348 186.758,99.7538 C188.908,99.4698 190.421,97.4998 190.138,95.3508 C189.858,93.2008 187.887,91.6868 185.737,91.9698 C183.589,92.2518 182.076,94.2238 182.356,96.3728" id="Fill-77" fill="#1B1413"></path>
            <path d="M187.4996,95.696 C187.6636,96.951 188.8146,97.835 190.0676,97.67 C191.3236,97.505 192.2066,96.354 192.0416,95.1 C191.8766,93.846 190.7266,92.963 189.4716,93.128 C188.2186,93.292 187.3346,94.444 187.4996,95.696" id="Fill-79" fill="#FEFEFE"></path>
            <path d="M184.6968,97.8079 C184.7378,98.1159 185.0198,98.3329 185.3288,98.2929 C185.6368,98.2519 185.8568,97.9689 185.8138,97.6589 C185.7728,97.3509 185.4908,97.1319 185.1798,97.1729 C184.8728,97.2129 184.6558,97.4969 184.6968,97.8079" id="Fill-81" fill="#FEFEFE"></path>
            <path d="M156.0045,84.2258 C156.7335,84.4568 157.6615,73.6148 151.8175,71.7558 L153.9135,77.9898 C153.9135,77.9898 152.3375,72.4328 150.2395,71.2098 C148.9835,70.4768 143.2325,68.7638 136.4155,70.3278 C128.7885,72.0758 126.1815,74.2708 125.1965,76.7288 C124.2125,79.1838 123.3695,84.9338 123.3695,84.9338 C123.3695,84.9338 138.1205,78.5238 156.0045,84.2258" id="Fill-83" fill="#322521"></path>
            <path d="M170.8355,82.7263 C170.0585,82.8633 170.9315,72.1963 177.1465,71.0973 L173.9905,76.9113 C173.9905,76.9113 176.5095,71.6933 178.8295,70.7583 C180.2225,70.1973 186.3155,69.2313 192.9405,71.5823 C200.3525,74.2133 202.6165,76.6693 203.2015,79.1803 C203.7855,81.6903 203.6785,87.3883 203.6785,87.3883 C203.6785,87.3883 189.8495,79.3553 170.8355,82.7263" id="Fill-85" fill="#322521"></path>
            <path d="M172.1656,171.1335 C168.3126,170.7805 154.9426,169.9125 156.8586,173.2045 C158.8256,176.5915 163.4176,180.1115 167.9886,178.3835 C172.5616,176.6585 176.5076,171.5305 172.1656,171.1335" id="Fill-87" fill="#D68960"></path>
            <path d="M177.6226,136.2229 C175.8366,137.0149 173.9406,137.5359 172.0246,137.8959 C168.1886,138.6009 164.2436,138.6439 160.3986,138.1319 C156.7066,137.5879 152.4366,136.6079 150.2946,133.9589 C149.5176,132.8559 149.9396,130.5749 151.0996,129.8659 C152.3706,128.9439 154.3256,128.6049 156.1696,128.4059 C157.5776,128.2529 157.7476,127.5859 157.7396,126.9269 L155.6146,87.3879 L155.4236,126.2069 C153.5596,126.5679 151.6216,126.9459 149.8586,128.3349 C147.9776,130.0599 147.5616,132.7719 148.9546,134.9069 C152.1216,138.3019 156.3906,138.7079 160.2806,139.2009 C164.2556,139.5309 168.2676,139.3059 172.1336,138.4139 C174.0626,137.9629 175.9626,137.3469 177.7366,136.4609 C179.3846,135.5469 181.4246,134.3599 181.5866,132.2779 C181.3326,134.3339 179.2806,135.3929 177.6226,136.2229" id="Fill-89" fill="#A86143"></path>
            <g id="Group-93" transform="translate(105.000000, 0.948000)">
                <mask id="mask-4" fill="white">
                    <use xlink:href="#path-3"></use>
                </mask>
                <g id="Clip-92"></g>
                <path d="M114.8902,21.2363 C112.9082,16.6623 101.6172,10.8743 86.5762,7.6273 L86.8122,7.6393 C86.8122,7.6393 90.8222,5.3973 96.3162,5.8423 C96.3162,5.8423 86.8222,3.7483 81.3452,6.0403 C78.3982,4.1183 73.1952,1.2023 67.2882,0.0513 C67.2882,0.0513 74.2462,4.4723 74.2242,5.6833 C70.7862,5.3363 67.2532,5.1343 63.6632,5.1213 C34.5602,5.0183 2.6152,15.1873 1.3422,23.9213 C-0.7758,38.4473 5.3362,82.7683 6.7322,92.5133 C9.4812,94.1093 11.9942,96.0683 12.6292,96.5733 C12.6542,95.7823 12.6782,94.9893 12.7002,94.1953 L12.7862,96.6973 C12.7862,96.6973 14.6652,66.0373 14.6652,64.6943 C14.6652,63.3663 13.3942,54.0913 13.3702,53.9103 C13.3702,53.9073 13.3742,53.9023 13.3762,53.8983 C21.4452,57.9473 43.6842,54.1253 49.8552,51.1133 C49.8552,51.1133 40.5802,55.5833 35.6362,56.7153 C44.0922,55.7703 74.2122,51.7483 87.3182,41.1913 C87.3182,41.1913 76.5562,51.5593 65.5442,54.6773 C65.5442,54.6773 90.6602,55.9303 101.9312,50.6733 C101.6852,54.0993 101.5662,57.7283 101.5462,61.4653 C101.3572,62.8433 101.3172,64.0083 101.5522,64.6943 C101.5522,64.7003 101.5552,64.7083 101.5562,64.7133 C101.6692,75.3413 102.5602,86.6423 103.8632,96.7193 C103.8632,96.7543 103.8662,96.7853 103.8662,96.7853 L103.8662,96.7543 C103.9132,97.1223 103.9582,97.4943 104.0072,97.8573 C105.8032,96.8903 108.7382,95.3733 111.7852,94.0533 C114.2342,76.5793 119.7652,32.4613 114.8902,21.2363" id="Fill-91" fill="#322521" mask="url(#mask-4)"></path>
            </g>
            <path d="M140.6363,57.6633 C139.2003,57.8223 138.3873,57.8953 138.3873,57.8953 C138.9203,57.9723 139.7023,57.8763 140.6363,57.6633" id="Fill-94" fill="#322521"></path>
            <path d="M104.4625,404.1668 C104.4625,404.1668 120.2525,317.5338 92.5605,214.9358 C92.5605,214.9358 110.3985,208.0148 138.8705,205.2218 C142.3925,204.8758 153.8105,227.2918 163.9545,227.0728 C174.4835,226.8438 183.7785,203.9998 189.4335,204.7428 C201.9745,206.3888 219.5195,210.5158 233.2675,214.7788 C233.2675,214.7788 213.7635,362.6608 227.5995,397.2488 C227.5995,397.2488 203.6135,413.9878 169.6325,414.1878 C168.3555,414.1938 165.8005,390.7928 165.8005,390.7928 C165.8005,390.7928 164.3425,414.0998 163.6345,414.0678 C147.8605,413.3588 124.7275,413.9848 104.4625,404.1668" id="Fill-96" fill="#68AEDE"></path>
            <path d="M162.9918,231.3088 L155.9958,226.1198 L144.5198,239.4458 C144.5198,239.4458 141.9448,226.9418 133.7628,206.3458 L146.3938,200.0448 L162.9918,231.3088 Z" id="Fill-98" fill="#82C9EF"></path>
            <path d="M162.9918,230.8621 L169.9898,225.3871 L181.4648,239.4461 C181.4648,239.4461 185.5208,227.7561 193.7038,206.0301 L182.4158,198.9041 L162.9918,230.8621 Z" id="Fill-100" fill="#82C9EF"></path>
            <path d="M141.3746,146.0764 C141.3746,146.0764 168.1856,153.2404 190.2836,145.1324 L179.0086,165.5424 C179.0086,165.5424 170.0886,169.1744 152.8206,165.2744 L141.3746,146.0764 Z" id="Fill-102" fill="#5A100D"></path>
            <path d="M151.8961,163.7263 L152.8211,165.2743 C170.0881,169.1743 179.0081,165.5413 179.0081,165.5413 L181.4701,161.0873 C169.7031,158.5653 159.1301,160.9703 151.8961,163.7263" id="Fill-104" fill="#8C1B1B"></path>
            <path d="M150.8912,154.2468 C156.3202,155.4248 177.7652,155.9628 183.7292,154.2468 C184.5482,154.0118 185.3182,153.4938 186.0422,152.8098 L190.2842,145.1318 C168.1852,153.2408 141.3742,146.0748 141.3742,146.0748 C141.3742,146.0748 145.4592,153.0718 150.8912,154.2468" id="Fill-106" fill="#FCFCFD"></path>
            <path d="M188.8599,147.7102 L190.2839,145.1322 C168.1849,153.2402 141.3749,146.0752 141.3749,146.0752 C141.3749,146.0752 142.0369,147.2022 143.1719,148.6232 C149.2919,149.9922 170.4219,153.8902 188.8599,147.7102" id="Fill-108" fill="#DFD5BF"></path>
            <path d="M168.3873,366.9939 C168.3873,365.0569 166.8183,363.4839 164.8783,363.4839 C162.9413,363.4839 161.3693,365.0569 161.3693,366.9939 C161.3693,368.9319 162.9413,370.5019 164.8783,370.5019 C166.8183,370.5019 168.3873,368.9319 168.3873,366.9939" id="Fill-110" fill="#4D96C0"></path>
            <path d="M168.3873,325.4861 C168.3873,323.5481 166.8183,321.9761 164.8783,321.9761 C162.9413,321.9761 161.3693,323.5481 161.3693,325.4861 C161.3693,327.4241 162.9413,328.9941 164.8783,328.9941 C166.8183,328.9941 168.3873,327.4241 168.3873,325.4861" id="Fill-112" fill="#4D96C0"></path>
            <path d="M168.3873,283.0603 C168.3873,281.1213 166.8183,279.5493 164.8783,279.5493 C162.9413,279.5493 161.3693,281.1213 161.3693,283.0603 C161.3693,284.9973 162.9413,286.5673 164.8783,286.5673 C166.8183,286.5673 168.3873,284.9973 168.3873,283.0603" id="Fill-114" fill="#4D96C0"></path>
            <path d="M168.3873,246.1658 C168.3873,244.2268 166.8183,242.6548 164.8783,242.6548 C162.9413,242.6548 161.3693,244.2268 161.3693,246.1658 C161.3693,248.1028 162.9413,249.6728 164.8783,249.6728 C166.8183,249.6728 168.3873,248.1028 168.3873,246.1658" id="Fill-116" fill="#4D96C0"></path>
            <path d="M186.1295,251.2839 C186.1295,251.2839 208.3175,253.1259 209.4995,253.1259 C209.4995,253.1259 208.3175,271.5429 207.6105,272.5959 C206.9025,273.6459 197.2265,280.4879 196.0455,280.4879 C194.8645,280.4879 187.0725,274.4359 186.1295,272.5959 C185.1855,270.7529 186.1295,251.2839 186.1295,251.2839" id="Fill-118" fill="#82C9EF"></path>
            <polygon id="Fill-120" fill="#82C9EF" points="281.0972 126.9954 315.2232 127.9184 317.0692 145.4434 281.0972 147.2874"></polygon>
            <polygon id="Fill-122" fill="#82C9EF" points="10.8423 138.9866 48.6593 133.4516 49.5813 157.4336 10.8423 159.2786"></polygon>
        </g>
    </g>
</svg>