<?xml version="1.0" encoding="UTF-8"?>
<svg width="310px" height="521px" viewBox="0 0 310 521" version="1.1" xmlns="http://www.w3.org/2000/svg" xmlns:xlink="http://www.w3.org/1999/xlink">
    <!-- Generator: Sketch 51.1 (57501) - http://www.bohemiancoding.com/sketch -->
    <title>beach/man-umbrella</title>
    <desc>Created with Sketch.</desc>
    <defs>
        <polygon id="path-1" points="0.5592 0.379 218.794 0.379 218.794 218.6132 0.5592 218.6132"></polygon>
        <polygon id="path-3" points="0.5599 0.379 218.7939 0.379 218.7939 218.6125 0.5599 218.6125"></polygon>
    </defs>
    <g id="beach/man-umbrella" stroke="none" stroke-width="1" fill="none" fill-rule="evenodd">
        <g id="man-umbrella">
            <g id="hor-chair" transform="translate(0.000000, 140.000000)">
                <polygon id="Fill-1" fill="#FEFEFE" points="118.0594 302.9496 0.6164 280.6336 53.9324 0.0406 171.3774 22.3546"></polygon>
                <polygon id="Fill-2" fill="#238CC7" points="171.3778 22.3549 53.9328 0.0409 46.2778 40.3319 163.7208 62.6489"></polygon>
                <polygon id="Fill-3" fill="#238CC7" points="30.9667 120.9105 148.4097 143.2285 156.0677 102.9395 38.6217 80.6225"></polygon>
                <polygon id="Fill-4" fill="#238CC7" points="15.6542 201.4906 133.0992 223.8066 140.7532 183.5176 23.3092 161.2016"></polygon>
                <polygon id="Fill-5" fill="#238CC7" points="0.6161 280.6332 118.0591 302.9492 125.4421 264.0982 7.9991 241.7832"></polygon>
            </g>
            <g id="char" transform="translate(35.000000, 159.621000)">
                <path d="M8.9032,318.4926 C8.2782,320.3946 8.0462,322.3836 8.5322,324.5456 C9.3272,328.0946 11.8742,331.0586 15.4952,331.8616 C17.7992,332.3736 18.8872,332.0666 20.3192,330.1446 C22.4242,327.3166 23.9282,324.2196 24.7062,320.7586 C25.6082,316.7346 26.3912,312.6766 28.4092,308.9926 C29.3662,307.2446 30.1732,305.4106 31.0122,303.5976 C32.3582,300.6896 31.7292,298.1976 29.0102,296.6526 C25.3992,294.5976 22.1102,294.5846 19.7552,298.9336 C17.1242,303.7936 14.2662,308.5176 11.4462,313.2696 C10.4282,314.9846 9.4912,316.6996 8.9032,318.4926" id="Fill-6" fill="#ABA535"></path>
                <path d="M23.954,318.2524 C23.54,319.3544 22.993,320.4144 22.337,321.4124 C21.677,322.4104 20.901,323.3444 20.018,324.1824 C19.575,324.5984 19.1,324.9864 18.604,325.3524 C18.352,325.5334 18.095,325.7054 17.825,325.8694 C17.69,325.9514 17.552,326.0314 17.411,326.1094 L17.192,326.2274 C17.112,326.2684 17.052,326.2974 16.934,326.3504 L16.753,326.4324 C16.739,326.5534 16.724,326.6724 16.702,326.7934 C16.638,327.1414 16.538,327.4844 16.397,327.8204 C16.253,328.1544 16.077,328.4824 15.798,328.7934 C15.643,328.4044 15.595,328.0354 15.577,327.6704 C15.563,327.3074 15.591,326.9514 15.653,326.6024 C15.677,326.4774 15.706,326.3544 15.737,326.2314 L15.532,325.9634 C14.628,324.7794 13.968,323.4324 13.544,322.0474 C13.108,320.6624 12.907,319.2344 12.85,317.8284 C12.804,316.4184 12.919,315.0204 13.169,313.6564 C13.294,312.9754 13.46,312.3014 13.657,311.6414 C13.866,310.9844 14.083,310.3224 14.434,309.7234 C14.388,310.0574 14.393,310.3984 14.388,310.7364 C14.384,311.0744 14.384,311.4124 14.388,311.7464 C14.393,312.4184 14.417,313.0844 14.448,313.7444 C14.515,315.0644 14.641,316.3674 14.85,317.6354 C15.052,318.9044 15.356,320.1394 15.768,321.3094 C16.071,322.1564 16.44,322.9674 16.89,323.7234 C17.032,323.6394 17.175,323.5514 17.315,323.4614 C17.759,323.1864 18.188,322.8774 18.604,322.5494 C19.446,321.8974 20.224,321.1484 20.964,320.3524 C21.692,319.5434 22.384,318.6824 23.018,317.7624 C23.657,316.8444 24.247,315.8734 24.831,314.8714 C24.677,316.0224 24.372,317.1544 23.954,318.2524" id="Fill-8" fill="#EEEEEE"></path>
                <path d="M48.9198,352.5805 C48.4578,354.5295 47.6158,356.3465 46.0698,357.9345 C43.5358,360.5415 39.8158,361.7365 36.3098,360.5255 C34.0768,359.7565 33.3108,358.9265 33.0958,356.5395 C32.7798,353.0275 33.1178,349.6015 34.2668,346.2445 C35.6028,342.3445 37.0578,338.4755 37.2648,334.2815 C37.3638,332.2895 37.6358,330.3055 37.8678,328.3205 C38.2418,325.1395 40.0818,323.3445 43.2068,323.4495 C47.3598,323.5865 50.1698,325.2955 49.9018,330.2345 C49.6028,335.7525 49.5658,341.2735 49.4838,346.7995 C49.4548,348.7935 49.3568,350.7445 48.9198,352.5805" id="Fill-10" fill="#ABA535"></path>
                <path d="M36.2176,344.5024 C35.9946,345.6584 35.9056,346.8484 35.9436,348.0434 C35.9836,349.2384 36.1566,350.4394 36.4706,351.6154 C36.6306,352.2014 36.8316,352.7814 37.0636,353.3524 C37.1836,353.6394 37.3136,353.9204 37.4566,354.2014 C37.5296,354.3424 37.6056,354.4824 37.6846,354.6214 L37.8096,354.8364 C37.8566,354.9124 37.8936,354.9694 37.9656,355.0764 L38.0766,355.2404 C38.0266,355.3504 37.9766,355.4614 37.9316,355.5744 C37.8046,355.9044 37.7096,356.2504 37.6536,356.6094 C37.6026,356.9714 37.5806,357.3424 37.6556,357.7524 C37.9906,357.5024 38.2256,357.2134 38.4316,356.9104 C38.6336,356.6074 38.7956,356.2914 38.9256,355.9614 C38.9716,355.8424 39.0106,355.7214 39.0476,355.6004 L39.3626,355.4814 C40.7526,354.9434 42.0206,354.1414 43.1056,353.1824 C44.2006,352.2314 45.1186,351.1194 45.9036,349.9494 C46.6806,348.7724 47.3136,347.5204 47.8136,346.2294 C48.0636,345.5824 48.2756,344.9204 48.4516,344.2544 C48.6176,343.5864 48.7796,342.9084 48.7926,342.2134 C48.6576,342.5224 48.4746,342.8114 48.3026,343.1024 C48.1296,343.3914 47.9516,343.6804 47.7746,343.9634 C47.4176,344.5314 47.0496,345.0884 46.6776,345.6334 C45.9306,346.7254 45.1416,347.7684 44.2996,348.7384 C43.4636,349.7154 42.5596,350.6074 41.5956,351.3894 C40.8936,351.9534 40.1556,352.4514 39.3776,352.8614 C39.2996,352.7154 39.2236,352.5654 39.1516,352.4144 C38.9166,351.9474 38.7126,351.4614 38.5306,350.9634 C38.1536,349.9674 37.8816,348.9224 37.6686,347.8564 C37.4706,346.7854 37.3316,345.6894 37.2726,344.5744 C37.2076,343.4574 37.2126,342.3224 37.2386,341.1624 C36.7686,342.2254 36.4366,343.3484 36.2176,344.5024" id="Fill-12" fill="#EEEEEE"></path>
                <path d="M50.702,245.2192 C50.702,245.2192 51.589,255.1412 53.491,260.1572 C54.939,264.0022 54.764,266.2742 52.681,266.7892 C47.376,268.0902 43.158,267.8322 41.518,267.1152 C38.763,265.9442 40.111,262.3852 40.479,260.5432 C41.13,257.3362 40.997,255.4052 41.321,253.9772 C42.614,248.5732 42.522,244.4902 42.622,243.8402 C43.04,240.4832 50.97,241.1992 50.702,245.2192" id="Fill-14" fill="#E8AF7F"></path>
                <path d="M11.8866,238.1216 C11.8866,238.1216 7.2176,246.9186 3.5186,250.8036 C0.6916,253.7856 -0.0304,255.9456 1.6906,257.2306 C6.0746,260.4886 10.0616,261.8896 11.8526,261.8636 C14.8466,261.8536 14.9836,258.0516 15.3586,256.2116 C16.0046,253.0026 16.8776,251.2736 17.1336,249.8326 C18.0396,244.3516 19.7096,240.6256 19.8676,239.9846 C20.7876,236.7306 13.2006,234.3106 11.8866,238.1216" id="Fill-16" fill="#E8AF7F"></path>
                <path d="M33.3426,192.3462 L46.3416,145.3322 L50.5356,146.1392 L46.5086,193.9912 C46.5086,193.9912 54.7446,201.0672 59.3576,195.9242 L69.4896,137.0122 L31.2536,129.4732 L20.3856,189.3832 C21.8306,194.5432 33.3426,192.3462 33.3426,192.3462" id="Fill-18" fill="#E8AF7F"></path>
                <path d="M59.5477,197.0141 C58.2197,190.9981 49.4077,189.9591 46.6987,195.0821 L42.4657,245.4141 L50.9437,247.0471 L59.5477,197.0141 Z" id="Fill-20" fill="#E8AF7F"></path>
                <path d="M20.1004,190.3774 C19.8994,190.7854 11.2154,239.3634 11.2154,239.3634 L19.8724,241.0294 L33.3194,192.7254 C32.9484,187.6234 24.3834,181.6914 20.1004,190.3774" id="Fill-22" fill="#E8AF7F"></path>
                <path d="M20.7508,40.5005 C23.3178,49.6345 40.0638,68.0415 40.0638,68.0415 L37.8598,82.7835 C37.8598,82.7835 14.5028,54.8095 12.2958,45.5395 C11.3578,41.6075 18.6988,33.1925 20.7508,40.5005" id="Fill-24" fill="#E8AF7F"></path>
                <path d="M48.659,35.771 C48.659,35.771 28.679,37.855 21.653,44.232 C18.392,47.191 12.751,41.355 14.815,39.45 C21.819,32.988 49.979,27.853 49.979,27.853 L48.659,35.771 Z" id="Fill-26" fill="#E8AF7F"></path>
                <path d="M112.2967,58.8989 C106.4477,66.3709 83.9577,77.0219 83.9577,77.0219 L78.9127,91.9219 C78.9127,91.9219 112.6307,74.5099 118.1997,66.7769 C120.5627,63.4979 116.9757,52.9209 112.2967,58.8989" id="Fill-28" fill="#E8AF7F"></path>
                <path d="M88.286,43.9077 C88.286,43.9077 105.972,53.4347 110.044,62.0077 C111.932,65.9837 119.37,62.7337 118.186,60.1847 C114.169,51.5457 90.077,36.0837 90.077,36.0837 L88.286,43.9077 Z" id="Fill-30" fill="#E8AF7F"></path>
                <path d="M30.7958,129.8735 C30.7958,129.8735 40.0298,103.3595 37.5278,67.3675 C37.5278,67.3675 60.4308,63.5755 85.2508,76.9535 C85.2508,76.9535 65.9248,128.7135 69.8078,137.5685 C69.8078,137.5685 61.8208,141.1275 50.2858,138.8635 C49.8528,138.7795 49.1028,137.9285 49.1028,137.9285 C49.1028,137.9285 48.4978,138.4735 48.2588,138.4145 C42.9588,137.0985 37.0068,134.5255 30.7958,129.8735" id="Fill-32" fill="#E8AF7F"></path>
                <polygon id="Fill-34" fill="#E6996A" points="63.9325 69.8276 61.1085 70.3636 58.7935 68.9156 55.8385 67.6686 57.8705 57.6106 69.6415 59.9886 67.6475 69.8626"></polygon>
                <path d="M91.0399,35.4428 C90.7489,34.6988 88.9039,34.8898 87.1179,35.2688 C85.8239,35.5248 84.8919,35.7288 84.2279,35.9958 C84.5989,30.4908 85.5259,23.9448 86.9979,19.0518 C86.9979,19.0518 82.3989,11.8538 72.7139,14.8688 C72.7139,14.8688 59.9289,8.6128 56.1349,15.6278 C56.1349,15.6278 54.9189,22.8818 53.3889,29.3448 C53.0169,28.9258 50.2959,25.8978 49.7949,26.5358 C48.7329,27.8818 46.6179,34.5868 48.3379,37.8988 C48.8259,38.8388 49.4539,39.1658 50.1019,39.1538 C48.4079,43.5058 52.8859,52.4488 55.0829,56.7828 C57.3989,61.3578 62.5259,62.0898 67.8429,62.5148 C73.1609,62.9408 85.3599,49.6278 84.4109,45.7618 C84.3339,45.4468 84.2699,45.0598 84.2179,44.6188 C85.0609,45.6268 86.3209,46.4228 87.8379,45.2238 C90.6849,42.9728 91.6239,36.9408 91.0399,35.4428" id="Fill-36" fill="#E8AF7F"></path>
                <path d="M73.0262,30.979 C73.0262,30.979 72.7962,34.681 73.7002,35.296 C74.6062,35.916 77.4622,37.083 79.1592,36.048 C80.8582,35.013 81.8502,33.952 81.8502,33.952 L81.3482,33.753 L73.0262,30.979 Z" id="Fill-38" fill="#221916"></path>
                <path d="M73.3309,31.0424 C73.3309,31.0424 73.1859,34.2264 74.0129,34.7744 C74.8409,35.3214 77.4379,36.3764 78.9549,35.5134 C80.4699,34.6504 81.3489,33.7534 81.3489,33.7534 C81.3489,33.7534 76.9009,29.3704 73.3309,31.0424" id="Fill-40" fill="#D58961"></path>
                <path d="M65.077,29.7026 C65.077,29.7026 63.853,33.2026 62.778,33.4206 C61.706,33.6396 58.62,33.6066 57.458,31.9946 C56.293,30.3806 55.791,29.0166 55.791,29.0166 L56.329,29.0286 L65.077,29.7026 Z" id="Fill-42" fill="#221916"></path>
                <path d="M64.7704,29.6421 C64.7704,29.6421 63.6684,32.6341 62.6934,32.8171 C61.7184,32.9991 58.9144,32.9641 57.8524,31.5801 C56.7914,30.1971 56.3294,29.0291 56.3294,29.0291 C56.3294,29.0291 62.1294,26.7161 64.7704,29.6421" id="Fill-44" fill="#D58961"></path>
                <path d="M65.2196,43.2231 C65.1796,43.4191 66.0066,43.7771 67.0626,44.0191 C68.1196,44.2621 69.0086,44.2981 69.0466,44.1031 C69.0846,43.9061 68.2586,43.5491 67.2016,43.3071 C66.1436,43.0641 65.2566,43.0271 65.2196,43.2231" id="Fill-46" fill="#EFCBA1"></path>
                <path d="M67.284,27.4682 C67.516,27.5952 68.571,23.9892 66.722,22.9602 L67.004,25.2142 C67.004,25.2142 66.85,23.2252 66.224,22.6672 C65.849,22.3342 64.019,21.3622 61.606,21.4252 C58.905,21.4942 57.874,22.0612 57.372,22.8232 C56.872,23.5882 56.192,25.4762 56.192,25.4762 C56.192,25.4762 61.622,24.3162 67.284,27.4682" id="Fill-48" fill="#332521"></path>
                <path d="M72.4071,27.9741 C72.1361,27.9671 73.1591,24.4171 75.3371,24.4691 L73.8721,26.2211 C73.8721,26.2211 75.0811,24.6281 75.9301,24.4701 C76.4391,24.3761 78.5691,24.4661 80.6491,25.7141 C82.9771,27.1111 83.5771,28.0971 83.6021,28.9871 C83.6301,29.8761 83.2041,31.7971 83.2041,31.7971 C83.2041,31.7971 79.0731,28.1331 72.4071,27.9741" id="Fill-50" fill="#332521"></path>
                <path d="M60.6297,49.6606 C60.6297,49.6606 62.8677,51.7966 69.1157,51.4536 C70.1657,51.3956 72.3927,50.8676 72.3927,50.8676 C72.3927,50.8676 69.2257,52.5976 68.1747,52.4856 C67.1257,52.3766 62.0707,51.1306 61.7217,50.8256 C61.4187,50.5596 60.6297,49.6606 60.6297,49.6606" id="Fill-52" fill="#AA562F"></path>
                <path d="M67.2499,53.3764 C65.9709,52.9934 61.5049,51.7864 61.9269,53.0304 C62.3609,54.3124 63.6749,55.8154 65.3409,55.5444 C67.0049,55.2724 68.6919,53.8084 67.2499,53.3764" id="Fill-54" fill="#D58961"></path>
                <path d="M28.7176,191.9184 C27.4386,191.5334 22.9726,190.3284 23.3956,191.5724 C23.8286,192.8524 25.1436,194.3574 26.8086,194.0864 C28.4736,193.8144 30.1586,192.3484 28.7176,191.9184" id="Fill-56" fill="#D58961"></path>
                <path d="M55.6952,197.0376 C54.4172,196.6526 49.9512,195.4476 50.3742,196.6916 C50.8072,197.9736 52.1222,199.4766 53.7862,199.2056 C55.4522,198.9336 57.1372,197.4696 55.6952,197.0376" id="Fill-58" fill="#D58961"></path>
                <path d="M71.0458,46.5434 C70.3878,46.6894 69.7118,46.7354 69.0378,46.7264 C67.6918,46.7024 66.3528,46.4464 65.0868,46.0114 C63.8738,45.5754 62.4968,44.9504 61.9518,43.9074 C61.7648,43.4814 62.0648,42.7384 62.5048,42.5784 C62.9988,42.3534 63.6828,42.3724 64.3208,42.4314 C64.8078,42.4754 64.9108,42.2614 64.9528,42.0374 L66.9368,28.5124 L64.2198,41.6364 C63.5628,41.6304 62.8808,41.6264 62.1908,41.9754 C61.4348,42.4314 61.1078,43.3194 61.4348,44.1384 C62.2728,45.5034 63.6918,45.9324 64.9748,46.3644 C66.2968,46.7474 67.6688,46.9464 69.0398,46.9094 C69.7238,46.8884 70.4078,46.8104 71.0688,46.6324 C71.6898,46.4354 72.4598,46.1724 72.6578,45.4794 C72.4308,46.1564 71.6648,46.3764 71.0458,46.5434" id="Fill-60" fill="#A66143"></path>
                <path d="M93.1473,10.8393 C92.7893,9.1543 89.3643,6.4253 84.4963,4.2973 L84.5753,4.3183 C84.5753,4.3183 86.0853,3.8313 87.9133,4.3593 C87.9133,4.3593 84.8443,3.0013 82.8343,3.4023 C81.9673,2.5503 80.4073,1.2083 78.4853,0.4143 C78.4853,0.4143 80.5383,2.3863 80.4483,2.7953 C79.3093,2.4433 78.1263,2.1323 76.9133,1.8843 C67.0703,-0.1407 55.5633,1.1153 54.5363,3.9843 C52.8253,8.7553 51.8643,24.1733 51.6703,27.5663 C52.4913,28.2943 53.2093,29.1303 53.3883,29.3433 C53.4523,29.0773 53.5143,28.8123 53.5753,28.5433 L53.4333,29.3963 C53.4333,29.3963 56.1653,19.1483 56.2563,18.6943 C56.3473,18.2453 56.5513,15.0193 56.5553,14.9563 C56.5573,14.9553 56.5583,14.9533 56.5593,14.9523 C59.0123,16.8743 66.8013,17.1013 69.0953,16.5043 C69.0953,16.5043 65.6503,17.3823 63.8993,17.4273 C66.8273,17.6873 77.2943,18.3843 82.4523,15.7063 C82.4523,15.7063 78.1003,18.4803 74.1613,18.7823 C74.1613,18.7823 82.5753,20.9233 86.7493,19.9153 C86.4313,21.0573 86.1433,22.2773 85.8803,23.5413 C85.7223,23.9933 85.6293,24.3863 85.6633,24.6343 C85.6633,24.6363 85.6613,24.6383 85.6633,24.6403 C84.9743,28.2453 84.5033,32.1303 84.2543,35.6303 L84.2513,35.6533 L84.2533,35.6433 C84.2453,35.7693 84.2353,35.8993 84.2263,36.0263 C84.9003,35.8203 85.9973,35.5083 87.1183,35.2693 C89.1413,29.5233 94.0303,14.9703 93.1473,10.8393" id="Fill-62" fill="#332521"></path>
                <path d="M63.8993,17.4272 C63.4043,17.3822 63.1243,17.3532 63.1243,17.3532 C63.2983,17.4152 63.5693,17.4362 63.8993,17.4272" id="Fill-64" fill="#332521"></path>
                <path d="M48.2948,145.9243 C48.2948,145.9243 30.1648,141.3093 29.6868,136.8913 C28.9398,129.9853 33.2908,123.9423 38.3328,121.0063 C43.9588,117.7313 66.0548,124.7053 67.1478,126.8263 C68.5668,129.5863 70.4308,134.4833 69.8078,137.5693 C69.1848,140.6563 68.3448,146.5183 66.7908,147.3523 C63.0008,149.3893 48.2948,145.9243 48.2948,145.9243" id="Fill-66" fill="#E8AF7F"></path>
                <path d="M87.4383,34.5073 C87.4643,34.1503 87.4693,33.7783 87.4533,33.6393 C87.4043,33.1093 86.9413,32.9353 84.9693,32.3793 C83.8133,32.0553 82.2183,31.6533 80.7133,31.2713 L80.5843,31.2333 C77.3353,30.3973 74.4303,30.3413 73.2303,30.4373 C72.1503,30.5253 70.6803,31.0763 70.4153,31.4983 C70.3803,31.5483 70.3723,31.5923 70.3423,31.6303 C69.8053,31.7153 69.1453,31.6263 68.3793,31.3813 C68.2743,31.3493 68.0143,31.2753 67.8563,31.1613 C67.8693,31.0973 67.8833,31.0213 67.8763,30.9523 C67.7933,30.4603 66.7083,29.3463 65.7493,28.8253 C64.6913,28.2363 62.0243,27.1003 58.7233,26.5233 L58.5943,26.4963 C57.0403,26.2273 55.4463,25.9413 54.2413,25.7533 C52.2433,25.4503 51.7503,25.4193 51.4753,25.8723 C51.4063,26.0053 51.2493,26.3353 51.1333,26.6743 C51.0403,26.9173 50.7943,27.6813 51.4683,28.0443 C51.5103,28.0653 51.5473,28.0933 51.5883,28.1143 C51.9403,28.2863 51.9933,28.3553 51.9953,28.4683 C51.9933,28.5803 51.9893,28.8293 51.9973,29.1243 C51.9663,30.8503 51.9943,32.6103 52.2713,33.3643 C52.3273,33.5363 52.3843,33.7063 52.4403,33.8763 C52.6553,34.6103 52.8973,35.4283 54.1123,36.2393 C55.0493,36.8593 56.5453,37.5233 58.0843,37.8573 C58.7133,37.9933 59.3543,38.0773 59.9653,38.0773 C62.1373,38.0733 64.1043,37.1933 64.9733,35.8083 C65.2393,35.3863 65.6153,34.7613 66.0203,34.0953 C66.3663,33.5093 66.8363,32.7453 67.1743,32.1793 C67.4383,32.3353 67.7353,32.4393 67.9673,32.5213 C68.2453,32.6113 68.5023,32.6753 68.7603,32.7373 C69.3913,32.8643 69.9943,32.9063 70.5263,32.8453 C70.6203,33.5093 70.7303,34.4243 70.8153,35.1213 C70.9073,35.8983 70.9853,36.6263 71.0443,37.1133 C71.2813,38.7443 72.7213,40.3613 74.6703,41.2403 C75.2523,41.5063 75.8683,41.6963 76.4973,41.8363 C78.0373,42.1583 79.6653,42.1713 80.7663,41.9863 C82.2143,41.7583 82.7783,41.1023 83.2763,40.5353 C83.3973,40.3913 83.5143,40.2673 83.6313,40.1323 C84.1983,39.5563 84.9303,37.9503 85.6353,36.3723 C85.7543,36.1133 85.8703,35.8763 85.9123,35.7833 C85.9553,35.6803 86.0303,35.6373 86.4183,35.6253 C86.4873,35.6283 86.5303,35.6253 86.5553,35.6183 C87.3153,35.5583 87.4093,34.7613 87.4383,34.5073" id="Fill-68" fill-opacity="0.9" fill="#41405B"></path>
                <path d="M33.1297,122.3852 C33.1297,122.3852 53.0667,131.3562 69.1297,130.1532 C69.1297,130.1532 71.6857,135.8602 68.1967,145.7832 C68.1967,145.7832 53.6627,143.0942 50.7587,146.4612 L46.4837,145.6002 C46.4837,145.6002 36.7567,138.6902 30.0117,137.8212 C30.0117,137.8212 27.0727,134.0162 33.1297,122.3852" id="Fill-70" fill="#1A4166"></path>
                <path d="M48.1161,89.5727 C48.2451,88.9417 47.8351,88.3247 47.2031,88.1977 C46.5721,88.0707 45.9561,88.4787 45.8281,89.1117 C45.7011,89.7427 46.1091,90.3597 46.7411,90.4887 C47.3731,90.6157 47.9891,90.2057 48.1161,89.5727" id="Fill-72" fill="#D58961"></path>
                <path d="M68.618,93.7153 C68.747,93.0823 68.339,92.4673 67.706,92.3403 C67.073,92.2113 66.458,92.6213 66.331,93.2523 C66.203,93.8853 66.612,94.5023 67.244,94.6293 C67.875,94.7563 68.491,94.3483 68.618,93.7153" id="Fill-74" fill="#D58961"></path>
            </g>
            <g id="umbrella" transform="translate(91.000000, 0.621000)">
                <g id="Group-80">
                    <mask id="mask-2" fill="white">
                        <use xlink:href="#path-1"></use>
                    </mask>
                    <g id="Clip-79"></g>
                    <path d="M201.7372,48.4712 L201.8642,47.3672 L201.6842,47.2472 L109.8332,109.2652 L131.1182,0.4972 L130.9322,0.3782 L130.1962,0.8002 C105.4192,14.9762 76.7392,20.8002 48.3952,17.4092 L47.5512,17.3082 L47.4302,17.4882 L109.4482,109.3412 L0.6802,88.0582 L0.5592,88.2402 L0.9832,88.9782 C15.1592,113.7532 20.9832,142.4372 17.5922,170.7792 L17.4912,171.6232 L17.6752,171.7432 L109.5262,109.7262 L88.2412,218.4922 L88.4232,218.6132 L88.9322,218.3212 C113.6802,204.0952 142.3502,198.2162 170.7022,201.5542 L171.8052,201.6832 L171.9252,201.5012 L109.9112,109.6502 L218.6742,130.9332 L218.7942,130.7502 L218.5032,130.2432 C204.2782,105.4922 198.3992,76.8222 201.7372,48.4712" id="Fill-78" fill="#D7322F" mask="url(#mask-2)"></path>
                </g>
                <g id="Group-83">
                    <mask id="mask-4" fill="white">
                        <use xlink:href="#path-3"></use>
                    </mask>
                    <g id="Clip-82"></g>
                    <path d="M131.6239,1.2495 L130.9329,0.3785 L130.7219,0.4215 L109.6219,109.2245 L47.7649,17.2645 L47.5499,17.3085 L47.3289,18.1285 C39.8349,45.6735 23.6709,70.0705 1.2279,87.7145 L0.5599,88.2395 L0.6039,88.4535 L109.4069,109.5505 L17.4459,171.4115 L17.4909,171.6235 L18.3129,171.8485 C45.8559,179.3425 70.2529,195.5055 87.8969,217.9445 L88.4229,218.6125 L88.6379,218.5715 L109.7329,109.7675 L171.5929,201.7265 L171.8059,201.6835 L171.9579,201.1165 C179.4029,173.5595 195.5169,149.1265 217.9229,131.4395 L218.7939,130.7505 L218.7529,130.5385 L109.9519,109.4385 L201.9089,47.5815 L201.8639,47.3675 L201.2999,47.2145 C173.7409,39.7725 149.3099,23.6555 131.6239,1.2495" id="Fill-81" fill="#F7F1F1" mask="url(#mask-4)"></path>
                </g>
                <path d="M114.5047,108.5151 C115.0477,111.1791 113.3247,113.7811 110.6567,114.3221 C107.9927,114.8611 105.3937,113.1421 104.8547,110.4741 C104.3117,107.8101 106.0337,105.2101 108.6977,104.6691 C111.3617,104.1281 113.9637,105.8511 114.5047,108.5151" id="Fill-84" fill="#FEFEFE"></path>
            </g>
        </g>
    </g>
</svg>