<?xml version="1.0" encoding="UTF-8"?>
<svg width="768px" height="639px" viewBox="0 0 768 639" version="1.1" xmlns="http://www.w3.org/2000/svg" xmlns:xlink="http://www.w3.org/1999/xlink">
    <!-- Generator: Sketch 51.1 (57501) - http://www.bohemiancoding.com/sketch -->
    <title>beach/sea-sand</title>
    <desc>Created with Sketch.</desc>
    <defs></defs>
    <g id="Symbols" stroke="none" stroke-width="1" fill="none" fill-rule="evenodd">
        <g id="beach/empty" transform="translate(0.000000, -228.000000)" fill="#F0DC85">
            <g id="beach/sea-sand" transform="translate(0.000000, 228.000000)">
                <g id="sea-sand">
                    <path d="M766.37,50.11 C724.92,56.11 731.85,47.91 687.62,17.75 C640.69,-14.25 580.91,22.96 515.88,25.75 C445.99,28.75 363.11,-23.25 304.2,12.75 C250.61,45.5 260.6,16.6 173.86,9.87 C87.12,3.14 81.54,-7.25 60.58,31.75 C37.75,74.21 19.65,49.82 0.67,47.75 L0,638.28 L767.64,638.28 L766.37,50.11 Z" id="Shape" fill-rule="nonzero"></path>
                </g>
            </g>
        </g>
    </g>
</svg>